Suite/Test/Step Name,Browser,Description,Start time,End time,Duration,Status
HappyFlow,Chrome 74.0.3729.169,,2019-06-06 16:15:50,2019-06-06 16:17:38,1m - 47.726s,FAILED
,,,,,,
Test Cases/HappyPath/AssignForPDTestCase,Chrome 74.0.3729.169,,2019-06-06 16:15:51,2019-06-06 16:16:17,26.329s,PASSED
"openBrowser(findTestData(""Data Files/Credentials/Cred_Data"").getValue(2, 2))",Chrome 74.0.3729.169,,2019-06-06 16:15:51,2019-06-06 16:15:57,5.891s,PASSED
maximizeWindow(),Chrome 74.0.3729.169,,2019-06-06 16:15:57,2019-06-06 16:15:58,1.198s,PASSED
"sendKeys(findTestObject(""AssignForPD/SalesManagerLogin/Page_Lead Management/input__jss9""), findTestData(""Data Files/Credentials/Cred_Data"").getValue(3, 2))",Chrome 74.0.3729.169,,2019-06-06 16:15:58,2019-06-06 16:15:58,0.283s,PASSED
"sendKeys(findTestObject(""AssignForPD/SalesManagerLogin/Page_Lead Management/input__password""), findTestData(""Data Files/Credentials/Cred_Data"").getValue(4, 2))",Chrome 74.0.3729.169,,2019-06-06 16:15:58,2019-06-06 16:15:59,0.266s,PASSED
"click(findTestObject(""AssignForPD/SalesManagerLogin/Page_Lead Management/input__jss9 jss12""))",Chrome 74.0.3729.169,,2019-06-06 16:15:59,2019-06-06 16:15:59,0.092s,PASSED
delay(2),Chrome 74.0.3729.169,,2019-06-06 16:15:59,2019-06-06 16:16:01,2.033s,PASSED
"for ([rowNum = 1, rowNum <= findTestData(""Data Files/LeadGenerationAndAssign/Assigning"").getRowNumbers(), (rowNum++)])",Chrome 74.0.3729.169,,2019-06-06 16:16:01,2019-06-06 16:16:16,15.451s,PASSED
closeBrowser(),Chrome 74.0.3729.169,,2019-06-06 16:16:16,2019-06-06 16:16:17,0.679s,PASSED
,,,,,,
Test Cases/HappyPath/RelationshipManagerForPre-QualTestCase,Chrome 74.0.3729.169,,2019-06-06 16:16:17,2019-06-06 16:17:37,1m - 20.326s,FAILED
"openBrowser(findTestData(""Data Files/Credentials/Cred_Data"").getValue(2, 3))",Chrome 74.0.3729.169,,2019-06-06 16:16:17,2019-06-06 16:16:22,4.790s,PASSED
maximizeWindow(),Chrome 74.0.3729.169,,2019-06-06 16:16:22,2019-06-06 16:16:23,1.214s,PASSED
"sendKeys(findTestObject(""RelationshipManagerForPre-Qual/Page_RelatinshipManagerLogin/input_Enter Email Id_ku-text-e""), findTestData(""Data Files/Credentials/Cred_Data"").getValue(3, 3))",Chrome 74.0.3729.169,,2019-06-06 16:16:23,2019-06-06 16:16:24,0.178s,PASSED
"sendKeys(findTestObject(""RelationshipManagerForPre-Qual/Page_RelatinshipManagerLogin/input_Enter Password_ku-text-p""), findTestData(""Data Files/Credentials/Cred_Data"").getValue(4, 3))",Chrome 74.0.3729.169,,2019-06-06 16:16:24,2019-06-06 16:16:24,0.179s,PASSED
"click(findTestObject(""RelationshipManagerForPre-Qual/Page_RelatinshipManagerLogin/input_Enter Password_ku-checkb""))",Chrome 74.0.3729.169,,2019-06-06 16:16:24,2019-06-06 16:16:24,0.082s,PASSED
"click(findTestObject(""RelationshipManagerForPre-Qual/Page_RelatinshipManagerLogin/span_Submit""))",Chrome 74.0.3729.169,,2019-06-06 16:16:24,2019-06-06 16:16:24,0.125s,PASSED
delay(2),Chrome 74.0.3729.169,,2019-06-06 16:16:24,2019-06-06 16:16:26,2.008s,PASSED
"xpath = ""//span[contains(text(), """" + findTestData(""Data Files/LeadGenerationAndAssign/Assigning"").getValue(1, 1) + """" )]""",Chrome 74.0.3729.169,,2019-06-06 16:16:26,2019-06-06 16:16:26,0.085s,PASSED
println(xpath),Chrome 74.0.3729.169,,2019-06-06 16:16:26,2019-06-06 16:16:26,0.002s,PASSED
to = new com.kms.katalon.core.testobject.TestObject(path),Chrome 74.0.3729.169,,2019-06-06 16:16:26,2019-06-06 16:16:26,0.001s,PASSED
"to.addProperty(""xpath"", EQUALS, xpath)",Chrome 74.0.3729.169,,2019-06-06 16:16:26,2019-06-06 16:16:26,0.001s,PASSED
click(to),Chrome 74.0.3729.169,,2019-06-06 16:16:26,2019-06-06 16:16:26,0.116s,PASSED
delay(1),Chrome 74.0.3729.169,,2019-06-06 16:16:26,2019-06-06 16:16:27,1.006s,PASSED
"click(findTestObject(""RelationshipManagerForPre-Qual/Tab_LoanApplicationDetails/span_Loan Application Details""))",Chrome 74.0.3729.169,,2019-06-06 16:16:27,2019-06-06 16:16:27,0.197s,PASSED
"click(findTestObject(""RelationshipManagerForPre-Qual/Tab_LoanApplicationDetails/Tab_LoanApplicationDetails/divRepayfrq""))",Chrome 74.0.3729.169,,2019-06-06 16:16:27,2019-06-06 16:16:28,0.078s,PASSED
delay(2),Chrome 74.0.3729.169,,2019-06-06 16:16:28,2019-06-06 16:16:30,2.003s,PASSED
"xpath1 = ""//div[contains(text(),"""" + findTestData(""Data Files/Pre-qualAndPD1/Pre_qual"").getValue(1, 1) + """")]""",Chrome 74.0.3729.169,,2019-06-06 16:16:30,2019-06-06 16:16:30,0.163s,PASSED
println(xpath1),Chrome 74.0.3729.169,,2019-06-06 16:16:30,2019-06-06 16:16:30,0.006s,PASSED
"to.addProperty(""xpath"", EQUALS, xpath1)",Chrome 74.0.3729.169,,2019-06-06 16:16:30,2019-06-06 16:16:30,0.003s,PASSED
click(to),Chrome 74.0.3729.169,,2019-06-06 16:16:30,2019-06-06 16:16:30,0.112s,PASSED
delay(2),Chrome 74.0.3729.169,,2019-06-06 16:16:30,2019-06-06 16:16:32,2.003s,PASSED
"click(findTestObject(""RelationshipManagerForPre-Qual/Tab_LoanApplicationDetails/Tab_LoanApplicationDetails/divSecurityOffered""))",Chrome 74.0.3729.169,,2019-06-06 16:16:32,2019-06-06 16:16:32,0.128s,PASSED
delay(2),Chrome 74.0.3729.169,,2019-06-06 16:16:32,2019-06-06 16:16:34,2.004s,PASSED
"xpath2 = ""//div[contains(text(),"""" + findTestData(""Data Files/Pre-qualAndPD1/Pre_qual"").getValue(2, 1) + """")]""",Chrome 74.0.3729.169,,2019-06-06 16:16:34,2019-06-06 16:16:34,0.077s,PASSED
"to.addProperty(""xpath"", EQUALS, xpath2)",Chrome 74.0.3729.169,,2019-06-06 16:16:34,2019-06-06 16:16:34,0.000s,PASSED
click(to),Chrome 74.0.3729.169,,2019-06-06 16:16:34,2019-06-06 16:16:34,0.110s,PASSED
delay(2),Chrome 74.0.3729.169,,2019-06-06 16:16:34,2019-06-06 16:16:36,2.003s,PASSED
"click(findTestObject(""RelationshipManagerForPre-Qual/Tab_LoanApplicationDetails/Tab_LoanApplicationDetails/divIDProof""))",Chrome 74.0.3729.169,,2019-06-06 16:16:36,2019-06-06 16:16:36,0.206s,PASSED
delay(2),Chrome 74.0.3729.169,,2019-06-06 16:16:36,2019-06-06 16:16:38,2.007s,PASSED
"xpath3 = ""//div[contains(text(),"""" + findTestData(""Data Files/Pre-qualAndPD1/Pre_qual"").getValue(3, 1) + """")]""",Chrome 74.0.3729.169,,2019-06-06 16:16:38,2019-06-06 16:16:38,0.165s,PASSED
"to.addProperty(""xpath"", EQUALS, xpath3)",Chrome 74.0.3729.169,,2019-06-06 16:16:38,2019-06-06 16:16:39,0.004s,PASSED
click(to),Chrome 74.0.3729.169,,2019-06-06 16:16:39,2019-06-06 16:16:39,0.112s,PASSED
delay(1),Chrome 74.0.3729.169,,2019-06-06 16:16:39,2019-06-06 16:16:40,1.004s,PASSED
"click(findTestObject(""RelationshipManagerForPre-Qual/Tab_LoanApplicationDetails/span_Loan Application Details""))",Chrome 74.0.3729.169,,2019-06-06 16:16:40,2019-06-06 16:16:40,0.075s,PASSED
delay(1),Chrome 74.0.3729.169,,2019-06-06 16:16:40,2019-06-06 16:16:41,1.005s,PASSED
"click(findTestObject(""RelationshipManagerForPre-Qual/Tab_BusinessDetails/span_Business Details""))",Chrome 74.0.3729.169,,2019-06-06 16:16:41,2019-06-06 16:16:41,0.165s,PASSED
delay(2),Chrome 74.0.3729.169,,2019-06-06 16:16:41,2019-06-06 16:16:43,2.005s,PASSED
"sendKeys(findTestObject(""RelationshipManagerForPre-Qual/Tab_BusinessDetails/input__ku-text-businessVintage""), findTestData(""Data Files/Pre-qualAndPD1/Pre_qual"").getValue(4, 1))",Chrome 74.0.3729.169,,2019-06-06 16:16:43,2019-06-06 16:16:43,0.301s,PASSED
delay(1),Chrome 74.0.3729.169,,2019-06-06 16:16:43,2019-06-06 16:16:44,1.003s,PASSED
"click(findTestObject(""RelationshipManagerForPre-Qual/Tab_BusinessDetails/span_Business Details""))",Chrome 74.0.3729.169,,2019-06-06 16:16:44,2019-06-06 16:16:44,0.080s,PASSED
delay(1),Chrome 74.0.3729.169,,2019-06-06 16:16:44,2019-06-06 16:16:45,1.003s,PASSED
"click(findTestObject(""RelationshipManagerForPre-Qual/Tab_PersonalDetails/span_Personal Details""))",Chrome 74.0.3729.169,,2019-06-06 16:16:45,2019-06-06 16:16:45,0.131s,PASSED
delay(1),Chrome 74.0.3729.169,,2019-06-06 16:16:45,2019-06-06 16:16:46,1.003s,PASSED
"click(findTestObject(""RelationshipManagerForPre-Qual/Tab_PersonalDetails/input__ku-datepicker-dob""))",Chrome 74.0.3729.169,,2019-06-06 16:16:46,2019-06-06 16:16:46,0.067s,PASSED
delay(2),Chrome 74.0.3729.169,,2019-06-06 16:16:46,2019-06-06 16:16:48,2.003s,PASSED
"click(findTestObject(""RelationshipManagerForPre-Qual/Tab_PersonalDetails/Tab_Calender/div_2019""))",Chrome 74.0.3729.169,,2019-06-06 16:16:48,2019-06-06 16:16:49,0.139s,PASSED
delay(2),Chrome 74.0.3729.169,,2019-06-06 16:16:49,2019-06-06 16:16:51,2.004s,PASSED
"xpath4 = ""//span[contains(text(),"""" + findTestData(""Data Files/Pre-qualAndPD1/Pre_qual"").getValue(5, 1) + """")]""",Chrome 74.0.3729.169,,2019-06-06 16:16:51,2019-06-06 16:16:51,0.067s,PASSED
println(xpath4),Chrome 74.0.3729.169,,2019-06-06 16:16:51,2019-06-06 16:16:51,0.002s,PASSED
"to.addProperty(""xpath"", EQUALS, xpath4)",Chrome 74.0.3729.169,,2019-06-06 16:16:51,2019-06-06 16:16:51,0.001s,PASSED
click(to),Chrome 74.0.3729.169,,2019-06-06 16:16:51,2019-06-06 16:16:51,0.101s,PASSED
delay(2),Chrome 74.0.3729.169,,2019-06-06 16:16:51,2019-06-06 16:16:53,2.005s,PASSED
"click(findTestObject(""RelationshipManagerForPre-Qual/Tab_PersonalDetails/Tab_Calender/span_27""))",Chrome 74.0.3729.169,,2019-06-06 16:16:53,2019-06-06 16:16:53,0.159s,PASSED
delay(2),Chrome 74.0.3729.169,,2019-06-06 16:16:53,2019-06-06 16:16:55,2.005s,PASSED
"click(findTestObject(""RelationshipManagerForPre-Qual/Tab_PersonalDetails/divGender""))",Chrome 74.0.3729.169,,2019-06-06 16:16:55,2019-06-06 16:16:55,0.260s,PASSED
delay(2),Chrome 74.0.3729.169,,2019-06-06 16:16:55,2019-06-06 16:16:57,2.008s,PASSED
"xpath5 = ""//div[contains(text(),"""" + findTestData(""Data Files/Pre-qualAndPD1/Pre_qual"").getValue(6, 1) + """")]""",Chrome 74.0.3729.169,,2019-06-06 16:16:57,2019-06-06 16:16:57,0.180s,PASSED
"to.addProperty(""xpath"", EQUALS, xpath5)",Chrome 74.0.3729.169,,2019-06-06 16:16:57,2019-06-06 16:16:57,0.001s,PASSED
click(to),Chrome 74.0.3729.169,,2019-06-06 16:16:57,2019-06-06 16:16:58,0.107s,PASSED
delay(1),Chrome 74.0.3729.169,,2019-06-06 16:16:58,2019-06-06 16:16:59,1.004s,PASSED
"click(findTestObject(""RelationshipManagerForPre-Qual/Tab_PersonalDetails/divMaritalStatus""))",Chrome 74.0.3729.169,,2019-06-06 16:16:59,2019-06-06 16:16:59,0.163s,PASSED
delay(1),Chrome 74.0.3729.169,,2019-06-06 16:16:59,2019-06-06 16:17:00,1.005s,PASSED
"xpath6 = ""//div[contains(text(),"""" + findTestData(""Data Files/Pre-qualAndPD1/Pre_qual"").getValue(7, 1) + """")]""",Chrome 74.0.3729.169,,2019-06-06 16:17:00,2019-06-06 16:17:00,0.117s,PASSED
"to.addProperty(""xpath"", EQUALS, xpath6)",Chrome 74.0.3729.169,,2019-06-06 16:17:00,2019-06-06 16:17:00,0.002s,PASSED
click(to),Chrome 74.0.3729.169,,2019-06-06 16:17:00,2019-06-06 16:17:00,0.100s,PASSED
delay(1),Chrome 74.0.3729.169,,2019-06-06 16:17:00,2019-06-06 16:17:01,1.004s,PASSED
"click(findTestObject(""RelationshipManagerForPre-Qual/Tab_PersonalDetails/divEducation""))",Chrome 74.0.3729.169,,2019-06-06 16:17:01,2019-06-06 16:17:01,0.132s,PASSED
delay(1),Chrome 74.0.3729.169,,2019-06-06 16:17:01,2019-06-06 16:17:02,1.005s,PASSED
"click(findTestObject(""RelationshipManagerForPre-Qual/Tab_PersonalDetails/div_SelectEducation""))",Chrome 74.0.3729.169,,2019-06-06 16:17:02,2019-06-06 16:17:02,0.199s,PASSED
delay(1),Chrome 74.0.3729.169,,2019-06-06 16:17:02,2019-06-06 16:17:03,1.003s,PASSED
"sendKeys(findTestObject(""RelationshipManagerForPre-Qual/Tab_PersonalDetails/input__ku-text-languagesKnown""), ""English"")",Chrome 74.0.3729.169,,2019-06-06 16:17:03,2019-06-06 16:17:04,0.255s,PASSED
delay(1),Chrome 74.0.3729.169,,2019-06-06 16:17:04,2019-06-06 16:17:05,1.008s,PASSED
"click(findTestObject(""RelationshipManagerForPre-Qual/Tab_PersonalDetails/span_Personal Details""))",Chrome 74.0.3729.169,,2019-06-06 16:17:05,2019-06-06 16:17:05,0.221s,PASSED
delay(1),Chrome 74.0.3729.169,,2019-06-06 16:17:05,2019-06-06 16:17:06,1.007s,PASSED
"click(findTestObject(""RelationshipManagerForPre-Qual/Tab_IDProof/span_ID-Proof""))",Chrome 74.0.3729.169,,2019-06-06 16:17:06,2019-06-06 16:17:06,0.279s,PASSED
"sendKeys(findTestObject(""RelationshipManagerForPre-Qual/Tab_IDProof/input__ku-text-panApplicant""), findTestData(""Data Files/Pre-qualAndPD1/Pre_qual"").getValue(8, 1))",Chrome 74.0.3729.169,,2019-06-06 16:17:06,2019-06-06 16:17:06,0.245s,PASSED
delay(2),Chrome 74.0.3729.169,,2019-06-06 16:17:06,2019-06-06 16:17:08,2.006s,PASSED
"click(findTestObject(""RelationshipManagerForPre-Qual/Tab_IDProof/input_Yes_radio-group-undefine""))",Chrome 74.0.3729.169,,2019-06-06 16:17:08,2019-06-06 16:17:08,0.204s,PASSED
delay(1),Chrome 74.0.3729.169,,2019-06-06 16:17:08,2019-06-06 16:17:09,1.005s,PASSED
"click(findTestObject(""RelationshipManagerForPre-Qual/Tab_IDProof/span_ID-Proof""))",Chrome 74.0.3729.169,,2019-06-06 16:17:09,2019-06-06 16:17:10,0.138s,PASSED
delay(2),Chrome 74.0.3729.169,,2019-06-06 16:17:10,2019-06-06 16:17:12,2.007s,PASSED
"click(findTestObject(""RelationshipManagerForPre-Qual/Tab_OwnerShipDetails/span_Address and Ownership Det""))",Chrome 74.0.3729.169,,2019-06-06 16:17:12,2019-06-06 16:17:12,0.259s,PASSED
"sendKeys(findTestObject(""RelationshipManagerForPre-Qual/Tab_OwnerShipDetails/input__ku-text-rAddressLine1""), ""Flat No 12, Saptshrungi Mata Appartment, Near Rose Bekary, Lamkhede Mala, Tarwala Nagar, Dindori Road, Panchvati, Nashik"")",Chrome 74.0.3729.169,,2019-06-06 16:17:12,2019-06-06 16:17:13,1.393s,PASSED
"sendKeys(findTestObject(""RelationshipManagerForPre-Qual/Tab_OwnerShipDetails/input_Please enter a Pincode f""), findTestData(""Data Files/Pre-qualAndPD1/Pre_qual"").getValue(9, 1))",Chrome 74.0.3729.169,,2019-06-06 16:17:13,2019-06-06 16:17:13,0.185s,PASSED
"click(findTestObject(""RelationshipManagerForPre-Qual/Tab_OwnerShipDetails/input_State_ku-checkbox-curren""))",Chrome 74.0.3729.169,,2019-06-06 16:17:13,2019-06-06 16:17:14,0.104s,PASSED
delay(1),Chrome 74.0.3729.169,,2019-06-06 16:17:14,2019-06-06 16:17:15,1.003s,PASSED
"click(findTestObject(""RelationshipManagerForPre-Qual/Tab_OwnerShipDetails/span_Address and Ownership Det""))",Chrome 74.0.3729.169,,2019-06-06 16:17:15,2019-06-06 16:17:15,0.185s,PASSED
delay(3),Chrome 74.0.3729.169,,2019-06-06 16:17:15,2019-06-06 16:17:18,3.006s,PASSED
"click(findTestObject(""Object Repository/RelationshipManagerForPre-Qual/Tab_BankDetails/span_Banking Details""))",Chrome 74.0.3729.169,,2019-06-06 16:17:18,2019-06-06 16:17:18,0.257s,PASSED
"sendKeys(findTestObject(""RelationshipManagerForPre-Qual/Tab_BankDetails/input_Bank Account Number_ku-t""), findTestData(""Data Files/Pre-qualAndPD1/Pre_qual"").getValue(10, 1))",Chrome 74.0.3729.169,,2019-06-06 16:17:18,2019-06-06 16:17:18,0.403s,PASSED
"sendKeys(findTestObject(""RelationshipManagerForPre-Qual/Tab_BankDetails/input_IFSC Code Branch Address""), findTestData(""Data Files/Pre-qualAndPD1/Pre_qual"").getValue(11, 1))",Chrome 74.0.3729.169,,2019-06-06 16:17:18,2019-06-06 16:17:19,0.294s,PASSED
delay(1),Chrome 74.0.3729.169,,2019-06-06 16:17:19,2019-06-06 16:17:20,1.004s,PASSED
"click(findTestObject(""RelationshipManagerForPre-Qual/Tab_BankDetails/input_IFSC Code Branch Address""))",Chrome 74.0.3729.169,,2019-06-06 16:17:20,2019-06-06 16:17:20,0.142s,PASSED
delay(2),Chrome 74.0.3729.169,,2019-06-06 16:17:20,2019-06-06 16:17:22,2.006s,PASSED
"sendKeys(findTestObject(""RelationshipManagerForPre-Qual/Tab_BankDetails/input_Vintage of the Bank Acco""), findTestData(""Data Files/Pre-qualAndPD1/Pre_qual"").getValue(12, 1))",Chrome 74.0.3729.169,,2019-06-06 16:17:22,2019-06-06 16:17:22,0.183s,PASSED
delay(1),Chrome 74.0.3729.169,,2019-06-06 16:17:22,2019-06-06 16:17:23,1.004s,PASSED
"click(findTestObject(""Object Repository/RelationshipManagerForPre-Qual/Tab_BankDetails/span_Banking Details""))",Chrome 74.0.3729.169,,2019-06-06 16:17:23,2019-06-06 16:17:23,0.145s,PASSED
delay(1),Chrome 74.0.3729.169,,2019-06-06 16:17:23,2019-06-06 16:17:24,1.005s,PASSED
"click(findTestObject(""RelationshipManagerForPre-Qual/Tab_BankDetails/TakenLoanDetails/span_Other Loan Details""))",Chrome 74.0.3729.169,,2019-06-06 16:17:24,2019-06-06 16:17:24,0.171s,PASSED
"println(findTestData(""Data Files/Pre-qualAndPD1/Pre_qual"").getValue(13, 1) == ""yes"")",Chrome 74.0.3729.169,,2019-06-06 16:17:24,2019-06-06 16:17:24,0.060s,PASSED
"if (findTestData(""Data Files/Pre-qualAndPD1/Pre_qual"").getValue(13, 1) == ""yes"")",Chrome 74.0.3729.169,,2019-06-06 16:17:24,2019-06-06 16:17:33,8.699s,PASSED
"sendKeys(findTestObject(""RelationshipManagerForPre-Qual/ComntAndNext/textarea_Personal Feedback or""), ""Whatever you want"")",Chrome 74.0.3729.169,,2019-06-06 16:17:33,2019-06-06 16:17:33,0.277s,PASSED
"click(findTestObject(""RelationshipManagerForPre-Qual/ComntAndNext/span_Next""))",Chrome 74.0.3729.169,,2019-06-06 16:17:33,2019-06-06 16:17:34,0.117s,PASSED
delay(3),Chrome 74.0.3729.169,,2019-06-06 16:17:34,2019-06-06 16:17:37,3.004s,PASSED
"click(findTestObject(""RelationshipManagerForPre-Qual/Page_ProceedToPD1/Page_Svakarma Finance/span_Next""))",Chrome 74.0.3729.169,,2019-06-06 16:17:37,2019-06-06 16:17:37,0.775s,FAILED
