Suite/Test/Step Name,Browser,Description,Start time,End time,Duration,Status
HappyFlow,Chrome 73.0.3683.103,,2019-05-15 11:29:53,2019-05-15 11:31:21,1m - 28.087s,FAILED
,,,,,,
Test Cases/HappyPath/RelationshipManagerForPre-QualTestCase,Chrome 73.0.3683.103,,2019-05-15 11:29:53,2019-05-15 11:30:37,44.308s,FAILED
"openBrowser(findTestData(""Data Files/Credentials/Cred_Data"").getValue(2, 3))",Chrome 73.0.3683.103,,2019-05-15 11:29:54,2019-05-15 11:30:01,6.621s,PASSED
maximizeWindow(),Chrome 73.0.3683.103,,2019-05-15 11:30:01,2019-05-15 11:30:02,1.146s,PASSED
"sendKeys(findTestObject(""RelationshipManagerForPre-Qual/Page_RelatinshipManagerLogin/input_Enter Email Id_ku-text-e""), findTestData(""Data Files/Credentials/Cred_Data"").getValue(3, 3))",Chrome 73.0.3683.103,,2019-05-15 11:30:02,2019-05-15 11:30:02,0.304s,PASSED
"sendKeys(findTestObject(""RelationshipManagerForPre-Qual/Page_RelatinshipManagerLogin/input_Enter Password_ku-text-p""), findTestData(""Data Files/Credentials/Cred_Data"").getValue(4, 3))",Chrome 73.0.3683.103,,2019-05-15 11:30:02,2019-05-15 11:30:02,0.285s,PASSED
"click(findTestObject(""RelationshipManagerForPre-Qual/Page_RelatinshipManagerLogin/input_Enter Password_ku-checkb""))",Chrome 73.0.3683.103,,2019-05-15 11:30:02,2019-05-15 11:30:02,0.128s,PASSED
"click(findTestObject(""RelationshipManagerForPre-Qual/Page_RelatinshipManagerLogin/span_Submit""))",Chrome 73.0.3683.103,,2019-05-15 11:30:02,2019-05-15 11:30:03,0.141s,PASSED
delay(2),Chrome 73.0.3683.103,,2019-05-15 11:30:03,2019-05-15 11:30:05,2.025s,PASSED
"xpath = ""//span[contains(text(), """" + findTestData(""Data Files/LeadGenerationAndAssign/Assigning"").getValue(1, 1) + """" )]""",Chrome 73.0.3683.103,,2019-05-15 11:30:05,2019-05-15 11:30:05,0.068s,PASSED
println(xpath),Chrome 73.0.3683.103,,2019-05-15 11:30:05,2019-05-15 11:30:05,0.006s,PASSED
to = new com.kms.katalon.core.testobject.TestObject(path),Chrome 73.0.3683.103,,2019-05-15 11:30:05,2019-05-15 11:30:05,0.011s,PASSED
"to.addProperty(""xpath"", EQUALS, xpath)",Chrome 73.0.3683.103,,2019-05-15 11:30:05,2019-05-15 11:30:05,0.024s,PASSED
click(to),Chrome 73.0.3683.103,,2019-05-15 11:30:05,2019-05-15 11:30:05,0.128s,PASSED
delay(1),Chrome 73.0.3683.103,,2019-05-15 11:30:05,2019-05-15 11:30:06,1.004s,PASSED
"click(findTestObject(""RelationshipManagerForPre-Qual/Tab_LoanApplicationDetails/span_Loan Application Details""))",Chrome 73.0.3683.103,,2019-05-15 11:30:06,2019-05-15 11:30:37,31.673s,FAILED
,,,,,,
Test Cases/HappyPath/PD1_HappyPath,Chrome 73.0.3683.103,,2019-05-15 11:30:38,2019-05-15 11:31:19,41.893s,FAILED
openBrowser(null),Chrome 73.0.3683.103,,2019-05-15 11:30:38,2019-05-15 11:30:41,2.945s,PASSED
maximizeWindow(null),Chrome 73.0.3683.103,,2019-05-15 11:30:41,2019-05-15 11:30:42,1.143s,PASSED
"navigateToUrl(findTestData(""Data Files/Credentials/Cred_Data"").getValue(2, 3))",Chrome 73.0.3683.103,Login,2019-05-15 11:30:42,2019-05-15 11:30:44,1.281s,PASSED
"setText(findTestObject(""Login/input_Enter Email Id_ku-text-e""), findTestData(""Data Files/Credentials/Cred_Data"").getValue(3, 3))",Chrome 73.0.3683.103,,2019-05-15 11:30:44,2019-05-15 11:30:44,0.208s,PASSED
"sendKeys(findTestObject(""Login/input_Enter Password_ku-text-p""), findTestData(""Data Files/Credentials/Cred_Data"").getValue(4, 3))",Chrome 73.0.3683.103,,2019-05-15 11:30:44,2019-05-15 11:30:44,0.181s,PASSED
"click(findTestObject(""Login/input_Enter Password_ku-checkb""))",Chrome 73.0.3683.103,,2019-05-15 11:30:44,2019-05-15 11:30:44,0.114s,PASSED
"click(findTestObject(""Login/span_Submit""))",Chrome 73.0.3683.103,,2019-05-15 11:30:44,2019-05-15 11:30:44,0.104s,PASSED
delay(1),Chrome 73.0.3683.103,,2019-05-15 11:30:44,2019-05-15 11:30:45,1.004s,PASSED
"xpath = ""//span[contains(text(), """" + findTestData(""Data Files/LeadGenerationAndAssign/Assigning"").getValue(1, 1) + """" )]""",Chrome 73.0.3683.103,,2019-05-15 11:30:45,2019-05-15 11:30:45,0.056s,PASSED
println(xpath),Chrome 73.0.3683.103,,2019-05-15 11:30:45,2019-05-15 11:30:45,0.002s,PASSED
to = new com.kms.katalon.core.testobject.TestObject(path),Chrome 73.0.3683.103,,2019-05-15 11:30:45,2019-05-15 11:30:45,0.001s,PASSED
"to.addProperty(""xpath"", EQUALS, xpath)",Chrome 73.0.3683.103,,2019-05-15 11:30:45,2019-05-15 11:30:45,0.001s,PASSED
click(to),Chrome 73.0.3683.103,,2019-05-15 11:30:45,2019-05-15 11:30:45,0.110s,PASSED
Thread.sleep(2),Chrome 73.0.3683.103,,2019-05-15 11:30:45,2019-05-15 11:30:45,0.012s,PASSED
delay(1),Chrome 73.0.3683.103,,2019-05-15 11:30:45,2019-05-15 11:30:46,1.004s,PASSED
"click(findTestObject(""Object Repository/PD1/PD Details/div_PD Details""))",Chrome 73.0.3683.103,,2019-05-15 11:30:46,2019-05-15 11:30:46,0.110s,PASSED
delay(1),Chrome 73.0.3683.103,,2019-05-15 11:30:46,2019-05-15 11:30:47,1.005s,PASSED
"sendKeys(findTestObject(""Object Repository/PD1/PD Details/Page_Svakarma Finance/input_Person who accompanied the PD officer_ku-text-coOfficerR""), Keys.chord(CONTROL, ""a""))",Chrome 73.0.3683.103,,2019-05-15 11:30:47,2019-05-15 11:31:19,31.881s,FAILED
,,,,,,
Test Cases/HappyPath/Continuation_of_PD1,Chrome 73.0.3683.103,,2019-05-15 11:31:19,2019-05-15 11:31:20,0.573s,ERROR
