Suite/Test/Step Name,Browser,Description,Start time,End time,Duration,Status
HappyFlow,Chrome 74.0.3729.169,,2019-06-04 14:51:46,2019-06-04 14:54:21,2m - 35.139s,FAILED
,,,,,,
Test Cases/HappyPath/AssignForPDTestCase,Chrome 74.0.3729.169,,2019-06-04 14:51:47,2019-06-04 14:52:12,25.317s,PASSED
"openBrowser(findTestData(""Data Files/Credentials/Cred_Data"").getValue(2, 2))",Chrome 74.0.3729.169,,2019-06-04 14:51:47,2019-06-04 14:51:52,5.273s,PASSED
maximizeWindow(),Chrome 74.0.3729.169,,2019-06-04 14:51:52,2019-06-04 14:51:54,1.160s,PASSED
"sendKeys(findTestObject(""AssignForPD/SalesManagerLogin/Page_Lead Management/input__jss9""), findTestData(""Data Files/Credentials/Cred_Data"").getValue(3, 2))",Chrome 74.0.3729.169,,2019-06-04 14:51:54,2019-06-04 14:51:54,0.203s,PASSED
"sendKeys(findTestObject(""AssignForPD/SalesManagerLogin/Page_Lead Management/input__password""), findTestData(""Data Files/Credentials/Cred_Data"").getValue(4, 2))",Chrome 74.0.3729.169,,2019-06-04 14:51:54,2019-06-04 14:51:54,0.162s,PASSED
"click(findTestObject(""AssignForPD/SalesManagerLogin/Page_Lead Management/input__jss9 jss12""))",Chrome 74.0.3729.169,,2019-06-04 14:51:54,2019-06-04 14:51:54,0.085s,PASSED
delay(2),Chrome 74.0.3729.169,,2019-06-04 14:51:54,2019-06-04 14:51:56,2.032s,PASSED
"for ([rowNum = 1, rowNum <= findTestData(""Data Files/LeadGenerationAndAssign/Assigning"").getRowNumbers(), (rowNum++)])",Chrome 74.0.3729.169,,2019-06-04 14:51:56,2019-06-04 14:52:11,15.183s,PASSED
closeBrowser(),Chrome 74.0.3729.169,,2019-06-04 14:52:11,2019-06-04 14:52:12,0.687s,PASSED
,,,,,,
Test Cases/HappyPath/RelationshipManagerForPre-QualTestCase,Chrome 74.0.3729.169,,2019-06-04 14:52:12,2019-06-04 14:53:38,1m - 26.068s,PASSED
"openBrowser(findTestData(""Data Files/Credentials/Cred_Data"").getValue(2, 3))",Chrome 74.0.3729.169,,2019-06-04 14:52:12,2019-06-04 14:52:16,3.416s,PASSED
maximizeWindow(),Chrome 74.0.3729.169,,2019-06-04 14:52:16,2019-06-04 14:52:17,1.146s,PASSED
"sendKeys(findTestObject(""RelationshipManagerForPre-Qual/Page_RelatinshipManagerLogin/input_Enter Email Id_ku-text-e""), findTestData(""Data Files/Credentials/Cred_Data"").getValue(3, 3))",Chrome 74.0.3729.169,,2019-06-04 14:52:17,2019-06-04 14:52:17,0.178s,PASSED
"sendKeys(findTestObject(""RelationshipManagerForPre-Qual/Page_RelatinshipManagerLogin/input_Enter Password_ku-text-p""), findTestData(""Data Files/Credentials/Cred_Data"").getValue(4, 3))",Chrome 74.0.3729.169,,2019-06-04 14:52:17,2019-06-04 14:52:17,0.169s,PASSED
"click(findTestObject(""RelationshipManagerForPre-Qual/Page_RelatinshipManagerLogin/input_Enter Password_ku-checkb""))",Chrome 74.0.3729.169,,2019-06-04 14:52:17,2019-06-04 14:52:17,0.090s,PASSED
"click(findTestObject(""RelationshipManagerForPre-Qual/Page_RelatinshipManagerLogin/span_Submit""))",Chrome 74.0.3729.169,,2019-06-04 14:52:17,2019-06-04 14:52:17,0.103s,PASSED
delay(2),Chrome 74.0.3729.169,,2019-06-04 14:52:17,2019-06-04 14:52:19,2.005s,PASSED
"xpath = ""//span[contains(text(), """" + findTestData(""Data Files/LeadGenerationAndAssign/Assigning"").getValue(1, 1) + """" )]""",Chrome 74.0.3729.169,,2019-06-04 14:52:19,2019-06-04 14:52:19,0.056s,PASSED
println(xpath),Chrome 74.0.3729.169,,2019-06-04 14:52:19,2019-06-04 14:52:19,0.001s,PASSED
to = new com.kms.katalon.core.testobject.TestObject(path),Chrome 74.0.3729.169,,2019-06-04 14:52:19,2019-06-04 14:52:19,0.001s,PASSED
"to.addProperty(""xpath"", EQUALS, xpath)",Chrome 74.0.3729.169,,2019-06-04 14:52:19,2019-06-04 14:52:19,0.000s,PASSED
click(to),Chrome 74.0.3729.169,,2019-06-04 14:52:19,2019-06-04 14:52:20,0.098s,PASSED
delay(1),Chrome 74.0.3729.169,,2019-06-04 14:52:20,2019-06-04 14:52:21,1.004s,PASSED
"click(findTestObject(""RelationshipManagerForPre-Qual/Tab_LoanApplicationDetails/span_Loan Application Details""))",Chrome 74.0.3729.169,,2019-06-04 14:52:21,2019-06-04 14:52:21,0.140s,PASSED
"click(findTestObject(""RelationshipManagerForPre-Qual/Tab_LoanApplicationDetails/Tab_LoanApplicationDetails/divRepayfrq""))",Chrome 74.0.3729.169,,2019-06-04 14:52:21,2019-06-04 14:52:21,0.110s,PASSED
delay(2),Chrome 74.0.3729.169,,2019-06-04 14:52:21,2019-06-04 14:52:23,2.003s,PASSED
"xpath1 = ""//div[contains(text(),"""" + findTestData(""Data Files/Pre-qualAndPD1/Pre_qual"").getValue(1, 1) + """")]""",Chrome 74.0.3729.169,,2019-06-04 14:52:23,2019-06-04 14:52:23,0.106s,PASSED
println(xpath1),Chrome 74.0.3729.169,,2019-06-04 14:52:23,2019-06-04 14:52:23,0.005s,PASSED
"to.addProperty(""xpath"", EQUALS, xpath1)",Chrome 74.0.3729.169,,2019-06-04 14:52:23,2019-06-04 14:52:23,0.001s,PASSED
click(to),Chrome 74.0.3729.169,,2019-06-04 14:52:23,2019-06-04 14:52:23,0.106s,PASSED
delay(2),Chrome 74.0.3729.169,,2019-06-04 14:52:23,2019-06-04 14:52:25,2.003s,PASSED
"click(findTestObject(""RelationshipManagerForPre-Qual/Tab_LoanApplicationDetails/Tab_LoanApplicationDetails/divSecurityOffered""))",Chrome 74.0.3729.169,,2019-06-04 14:52:25,2019-06-04 14:52:25,0.082s,PASSED
delay(2),Chrome 74.0.3729.169,,2019-06-04 14:52:25,2019-06-04 14:52:27,2.003s,PASSED
"xpath2 = ""//div[contains(text(),"""" + findTestData(""Data Files/Pre-qualAndPD1/Pre_qual"").getValue(2, 1) + """")]""",Chrome 74.0.3729.169,,2019-06-04 14:52:27,2019-06-04 14:52:27,0.069s,PASSED
"to.addProperty(""xpath"", EQUALS, xpath2)",Chrome 74.0.3729.169,,2019-06-04 14:52:27,2019-06-04 14:52:27,0.000s,PASSED
click(to),Chrome 74.0.3729.169,,2019-06-04 14:52:27,2019-06-04 14:52:27,0.115s,PASSED
delay(2),Chrome 74.0.3729.169,,2019-06-04 14:52:27,2019-06-04 14:52:29,2.003s,PASSED
"click(findTestObject(""RelationshipManagerForPre-Qual/Tab_LoanApplicationDetails/Tab_LoanApplicationDetails/divIDProof""))",Chrome 74.0.3729.169,,2019-06-04 14:52:29,2019-06-04 14:52:29,0.091s,PASSED
delay(2),Chrome 74.0.3729.169,,2019-06-04 14:52:29,2019-06-04 14:52:31,2.003s,PASSED
"xpath3 = ""//div[contains(text(),"""" + findTestData(""Data Files/Pre-qualAndPD1/Pre_qual"").getValue(3, 1) + """")]""",Chrome 74.0.3729.169,,2019-06-04 14:52:31,2019-06-04 14:52:31,0.064s,PASSED
"to.addProperty(""xpath"", EQUALS, xpath3)",Chrome 74.0.3729.169,,2019-06-04 14:52:31,2019-06-04 14:52:32,0.003s,PASSED
click(to),Chrome 74.0.3729.169,,2019-06-04 14:52:32,2019-06-04 14:52:32,0.132s,PASSED
delay(1),Chrome 74.0.3729.169,,2019-06-04 14:52:32,2019-06-04 14:52:33,1.004s,PASSED
"click(findTestObject(""RelationshipManagerForPre-Qual/Tab_LoanApplicationDetails/span_Loan Application Details""))",Chrome 74.0.3729.169,,2019-06-04 14:52:33,2019-06-04 14:52:33,0.085s,PASSED
delay(1),Chrome 74.0.3729.169,,2019-06-04 14:52:33,2019-06-04 14:52:34,1.003s,PASSED
"click(findTestObject(""RelationshipManagerForPre-Qual/Tab_BusinessDetails/span_Business Details""))",Chrome 74.0.3729.169,,2019-06-04 14:52:34,2019-06-04 14:52:34,0.108s,PASSED
delay(2),Chrome 74.0.3729.169,,2019-06-04 14:52:34,2019-06-04 14:52:36,2.004s,PASSED
"sendKeys(findTestObject(""RelationshipManagerForPre-Qual/Tab_BusinessDetails/input__ku-text-businessVintage""), findTestData(""Data Files/Pre-qualAndPD1/Pre_qual"").getValue(4, 1))",Chrome 74.0.3729.169,,2019-06-04 14:52:36,2019-06-04 14:52:36,0.218s,PASSED
delay(1),Chrome 74.0.3729.169,,2019-06-04 14:52:36,2019-06-04 14:52:37,1.004s,PASSED
"click(findTestObject(""RelationshipManagerForPre-Qual/Tab_BusinessDetails/span_Business Details""))",Chrome 74.0.3729.169,,2019-06-04 14:52:37,2019-06-04 14:52:37,0.102s,PASSED
delay(1),Chrome 74.0.3729.169,,2019-06-04 14:52:37,2019-06-04 14:52:38,1.002s,PASSED
"click(findTestObject(""RelationshipManagerForPre-Qual/Tab_PersonalDetails/span_Personal Details""))",Chrome 74.0.3729.169,,2019-06-04 14:52:38,2019-06-04 14:52:38,0.105s,PASSED
delay(1),Chrome 74.0.3729.169,,2019-06-04 14:52:38,2019-06-04 14:52:39,1.003s,PASSED
"click(findTestObject(""RelationshipManagerForPre-Qual/Tab_PersonalDetails/input__ku-datepicker-dob""))",Chrome 74.0.3729.169,,2019-06-04 14:52:39,2019-06-04 14:52:39,0.107s,PASSED
delay(2),Chrome 74.0.3729.169,,2019-06-04 14:52:39,2019-06-04 14:52:41,2.004s,PASSED
"click(findTestObject(""RelationshipManagerForPre-Qual/Tab_PersonalDetails/Tab_Calender/div_2019""))",Chrome 74.0.3729.169,,2019-06-04 14:52:41,2019-06-04 14:52:42,0.152s,PASSED
delay(2),Chrome 74.0.3729.169,,2019-06-04 14:52:42,2019-06-04 14:52:44,2.006s,PASSED
"xpath4 = ""//span[contains(text(),"""" + findTestData(""Data Files/Pre-qualAndPD1/Pre_qual"").getValue(5, 1) + """")]""",Chrome 74.0.3729.169,,2019-06-04 14:52:44,2019-06-04 14:52:44,0.071s,PASSED
println(xpath4),Chrome 74.0.3729.169,,2019-06-04 14:52:44,2019-06-04 14:52:44,0.001s,PASSED
"to.addProperty(""xpath"", EQUALS, xpath4)",Chrome 74.0.3729.169,,2019-06-04 14:52:44,2019-06-04 14:52:44,0.000s,PASSED
click(to),Chrome 74.0.3729.169,,2019-06-04 14:52:44,2019-06-04 14:52:44,0.096s,PASSED
delay(2),Chrome 74.0.3729.169,,2019-06-04 14:52:44,2019-06-04 14:52:46,2.005s,PASSED
"click(findTestObject(""RelationshipManagerForPre-Qual/Tab_PersonalDetails/Tab_Calender/span_27""))",Chrome 74.0.3729.169,,2019-06-04 14:52:46,2019-06-04 14:52:46,0.120s,PASSED
delay(2),Chrome 74.0.3729.169,,2019-06-04 14:52:46,2019-06-04 14:52:48,2.003s,PASSED
"click(findTestObject(""RelationshipManagerForPre-Qual/Tab_PersonalDetails/divGender""))",Chrome 74.0.3729.169,,2019-06-04 14:52:48,2019-06-04 14:52:48,0.091s,PASSED
delay(2),Chrome 74.0.3729.169,,2019-06-04 14:52:48,2019-06-04 14:52:50,2.003s,PASSED
"xpath5 = ""//div[contains(text(),"""" + findTestData(""Data Files/Pre-qualAndPD1/Pre_qual"").getValue(6, 1) + """")]""",Chrome 74.0.3729.169,,2019-06-04 14:52:50,2019-06-04 14:52:50,0.063s,PASSED
"to.addProperty(""xpath"", EQUALS, xpath5)",Chrome 74.0.3729.169,,2019-06-04 14:52:50,2019-06-04 14:52:50,0.000s,PASSED
click(to),Chrome 74.0.3729.169,,2019-06-04 14:52:50,2019-06-04 14:52:50,0.081s,PASSED
delay(1),Chrome 74.0.3729.169,,2019-06-04 14:52:50,2019-06-04 14:52:51,1.004s,PASSED
"click(findTestObject(""RelationshipManagerForPre-Qual/Tab_PersonalDetails/divMaritalStatus""))",Chrome 74.0.3729.169,,2019-06-04 14:52:51,2019-06-04 14:52:51,0.096s,PASSED
delay(1),Chrome 74.0.3729.169,,2019-06-04 14:52:51,2019-06-04 14:52:52,1.002s,PASSED
"xpath6 = ""//div[contains(text(),"""" + findTestData(""Data Files/Pre-qualAndPD1/Pre_qual"").getValue(7, 1) + """")]""",Chrome 74.0.3729.169,,2019-06-04 14:52:52,2019-06-04 14:52:52,0.053s,PASSED
"to.addProperty(""xpath"", EQUALS, xpath6)",Chrome 74.0.3729.169,,2019-06-04 14:52:52,2019-06-04 14:52:52,0.001s,PASSED
click(to),Chrome 74.0.3729.169,,2019-06-04 14:52:52,2019-06-04 14:52:53,0.274s,PASSED
delay(1),Chrome 74.0.3729.169,,2019-06-04 14:52:53,2019-06-04 14:52:54,1.005s,PASSED
"click(findTestObject(""RelationshipManagerForPre-Qual/Tab_PersonalDetails/divEducation""))",Chrome 74.0.3729.169,,2019-06-04 14:52:54,2019-06-04 14:52:54,0.118s,PASSED
delay(1),Chrome 74.0.3729.169,,2019-06-04 14:52:54,2019-06-04 14:52:55,1.003s,PASSED
"click(findTestObject(""RelationshipManagerForPre-Qual/Tab_PersonalDetails/div_SelectEducation""))",Chrome 74.0.3729.169,,2019-06-04 14:52:55,2019-06-04 14:52:55,0.104s,PASSED
delay(1),Chrome 74.0.3729.169,,2019-06-04 14:52:55,2019-06-04 14:52:56,1.004s,PASSED
"sendKeys(findTestObject(""RelationshipManagerForPre-Qual/Tab_PersonalDetails/input__ku-text-languagesKnown""), ""English"")",Chrome 74.0.3729.169,,2019-06-04 14:52:56,2019-06-04 14:52:56,0.199s,PASSED
delay(1),Chrome 74.0.3729.169,,2019-06-04 14:52:56,2019-06-04 14:52:57,1.003s,PASSED
"click(findTestObject(""RelationshipManagerForPre-Qual/Tab_PersonalDetails/span_Personal Details""))",Chrome 74.0.3729.169,,2019-06-04 14:52:57,2019-06-04 14:52:57,0.086s,PASSED
delay(1),Chrome 74.0.3729.169,,2019-06-04 14:52:57,2019-06-04 14:52:58,1.003s,PASSED
"click(findTestObject(""RelationshipManagerForPre-Qual/Tab_IDProof/span_ID-Proof""))",Chrome 74.0.3729.169,,2019-06-04 14:52:58,2019-06-04 14:52:58,0.118s,PASSED
"sendKeys(findTestObject(""RelationshipManagerForPre-Qual/Tab_IDProof/input__ku-text-panApplicant""), findTestData(""Data Files/Pre-qualAndPD1/Pre_qual"").getValue(8, 1))",Chrome 74.0.3729.169,,2019-06-04 14:52:58,2019-06-04 14:52:58,0.243s,PASSED
delay(2),Chrome 74.0.3729.169,,2019-06-04 14:52:58,2019-06-04 14:53:00,2.004s,PASSED
"click(findTestObject(""RelationshipManagerForPre-Qual/Tab_IDProof/input_Yes_radio-group-undefine""))",Chrome 74.0.3729.169,,2019-06-04 14:53:00,2019-06-04 14:53:01,0.100s,PASSED
delay(1),Chrome 74.0.3729.169,,2019-06-04 14:53:01,2019-06-04 14:53:02,1.002s,PASSED
"click(findTestObject(""RelationshipManagerForPre-Qual/Tab_IDProof/span_ID-Proof""))",Chrome 74.0.3729.169,,2019-06-04 14:53:02,2019-06-04 14:53:02,0.083s,PASSED
delay(2),Chrome 74.0.3729.169,,2019-06-04 14:53:02,2019-06-04 14:53:04,2.004s,PASSED
"click(findTestObject(""RelationshipManagerForPre-Qual/Tab_OwnerShipDetails/span_Address and Ownership Det""))",Chrome 74.0.3729.169,,2019-06-04 14:53:04,2019-06-04 14:53:04,0.126s,PASSED
"sendKeys(findTestObject(""RelationshipManagerForPre-Qual/Tab_OwnerShipDetails/input__ku-text-rAddressLine1""), ""Flat No 12, Saptshrungi Mata Appartment, Near Rose Bekary, Lamkhede Mala, Tarwala Nagar, Dindori Road, Panchvati, Nashik"")",Chrome 74.0.3729.169,,2019-06-04 14:53:04,2019-06-04 14:53:05,1.202s,PASSED
"sendKeys(findTestObject(""RelationshipManagerForPre-Qual/Tab_OwnerShipDetails/input_Please enter a Pincode f""), findTestData(""Data Files/Pre-qualAndPD1/Pre_qual"").getValue(9, 1))",Chrome 74.0.3729.169,,2019-06-04 14:53:05,2019-06-04 14:53:05,0.157s,PASSED
"click(findTestObject(""RelationshipManagerForPre-Qual/Tab_OwnerShipDetails/input_State_ku-checkbox-curren""))",Chrome 74.0.3729.169,,2019-06-04 14:53:05,2019-06-04 14:53:05,0.092s,PASSED
delay(1),Chrome 74.0.3729.169,,2019-06-04 14:53:05,2019-06-04 14:53:06,1.004s,PASSED
"click(findTestObject(""RelationshipManagerForPre-Qual/Tab_OwnerShipDetails/span_Address and Ownership Det""))",Chrome 74.0.3729.169,,2019-06-04 14:53:06,2019-06-04 14:53:06,0.076s,PASSED
delay(3),Chrome 74.0.3729.169,,2019-06-04 14:53:06,2019-06-04 14:53:09,3.004s,PASSED
"click(findTestObject(""Object Repository/RelationshipManagerForPre-Qual/Tab_BankDetails/span_Banking Details""))",Chrome 74.0.3729.169,,2019-06-04 14:53:09,2019-06-04 14:53:09,0.127s,PASSED
"sendKeys(findTestObject(""RelationshipManagerForPre-Qual/Tab_BankDetails/input_Bank Account Number_ku-t""), findTestData(""Data Files/Pre-qualAndPD1/Pre_qual"").getValue(10, 1))",Chrome 74.0.3729.169,,2019-06-04 14:53:09,2019-06-04 14:53:10,0.233s,PASSED
"sendKeys(findTestObject(""RelationshipManagerForPre-Qual/Tab_BankDetails/input_IFSC Code Branch Address""), findTestData(""Data Files/Pre-qualAndPD1/Pre_qual"").getValue(11, 1))",Chrome 74.0.3729.169,,2019-06-04 14:53:10,2019-06-04 14:53:10,0.218s,PASSED
delay(1),Chrome 74.0.3729.169,,2019-06-04 14:53:10,2019-06-04 14:53:11,1.002s,PASSED
"click(findTestObject(""RelationshipManagerForPre-Qual/Tab_BankDetails/input_IFSC Code Branch Address""))",Chrome 74.0.3729.169,,2019-06-04 14:53:11,2019-06-04 14:53:11,0.072s,PASSED
delay(2),Chrome 74.0.3729.169,,2019-06-04 14:53:11,2019-06-04 14:53:13,2.004s,PASSED
"sendKeys(findTestObject(""RelationshipManagerForPre-Qual/Tab_BankDetails/input_Vintage of the Bank Acco""), findTestData(""Data Files/Pre-qualAndPD1/Pre_qual"").getValue(12, 1))",Chrome 74.0.3729.169,,2019-06-04 14:53:13,2019-06-04 14:53:13,0.141s,PASSED
delay(1),Chrome 74.0.3729.169,,2019-06-04 14:53:13,2019-06-04 14:53:14,1.002s,PASSED
"click(findTestObject(""Object Repository/RelationshipManagerForPre-Qual/Tab_BankDetails/span_Banking Details""))",Chrome 74.0.3729.169,,2019-06-04 14:53:14,2019-06-04 14:53:14,0.059s,PASSED
delay(1),Chrome 74.0.3729.169,,2019-06-04 14:53:14,2019-06-04 14:53:15,1.005s,PASSED
"click(findTestObject(""RelationshipManagerForPre-Qual/Tab_BankDetails/TakenLoanDetails/span_Other Loan Details""))",Chrome 74.0.3729.169,,2019-06-04 14:53:15,2019-06-04 14:53:15,0.117s,PASSED
"println(findTestData(""Data Files/Pre-qualAndPD1/Pre_qual"").getValue(13, 1) == ""yes"")",Chrome 74.0.3729.169,,2019-06-04 14:53:15,2019-06-04 14:53:15,0.028s,PASSED
"if (findTestData(""Data Files/Pre-qualAndPD1/Pre_qual"").getValue(13, 1) == ""yes"")",Chrome 74.0.3729.169,,2019-06-04 14:53:15,2019-06-04 14:53:23,8.224s,PASSED
"sendKeys(findTestObject(""RelationshipManagerForPre-Qual/ComntAndNext/textarea_Personal Feedback or""), ""Whatever you want"")",Chrome 74.0.3729.169,,2019-06-04 14:53:23,2019-06-04 14:53:24,0.283s,PASSED
"click(findTestObject(""RelationshipManagerForPre-Qual/ComntAndNext/span_Next""))",Chrome 74.0.3729.169,,2019-06-04 14:53:24,2019-06-04 14:53:24,0.133s,PASSED
delay(3),Chrome 74.0.3729.169,,2019-06-04 14:53:24,2019-06-04 14:53:27,3.004s,PASSED
"click(findTestObject(""RelationshipManagerForPre-Qual/Page_ProceedToPD1/Page_Svakarma Finance/span_Next""))",Chrome 74.0.3729.169,,2019-06-04 14:53:27,2019-06-04 14:53:27,0.103s,PASSED
delay(3),Chrome 74.0.3729.169,,2019-06-04 14:53:27,2019-06-04 14:53:30,3.003s,PASSED
"click(findTestObject(""RelationshipManagerForPre-Qual/Page_SelectPD1Location/div_PD1Location""))",Chrome 74.0.3729.169,,2019-06-04 14:53:30,2019-06-04 14:53:30,0.075s,PASSED
delay(2),Chrome 74.0.3729.169,,2019-06-04 14:53:30,2019-06-04 14:53:32,2.002s,PASSED
"xpath7 = ""//div[contains(text(),"""" + findTestData(""Data Files/Pre-qualAndPD1/Pre_qual"").getValue(14, 1) + """")]""",Chrome 74.0.3729.169,,2019-06-04 14:53:32,2019-06-04 14:53:32,0.026s,PASSED
"to.addProperty(""xpath"", EQUALS, xpath7)",Chrome 74.0.3729.169,,2019-06-04 14:53:32,2019-06-04 14:53:32,0.001s,PASSED
click(to),Chrome 74.0.3729.169,,2019-06-04 14:53:32,2019-06-04 14:53:32,0.082s,PASSED
delay(2),Chrome 74.0.3729.169,,2019-06-04 14:53:32,2019-06-04 14:53:34,2.002s,PASSED
"click(findTestObject(""RelationshipManagerForPre-Qual/Page_SelectPD1Location/span_Next""))",Chrome 74.0.3729.169,,2019-06-04 14:53:34,2019-06-04 14:53:34,0.076s,PASSED
delay(3),Chrome 74.0.3729.169,,2019-06-04 14:53:34,2019-06-04 14:53:37,3.002s,PASSED
closeBrowser(),Chrome 74.0.3729.169,,2019-06-04 14:53:37,2019-06-04 14:53:38,0.719s,PASSED
,,,,,,
Test Cases/HappyPath/PD1_HappyPath,Chrome 74.0.3729.169,,2019-06-04 14:53:38,2019-06-04 14:54:21,42.698s,FAILED
openBrowser(null),Chrome 74.0.3729.169,,2019-06-04 14:53:38,2019-06-04 14:53:41,2.263s,PASSED
maximizeWindow(null),Chrome 74.0.3729.169,,2019-06-04 14:53:41,2019-06-04 14:53:42,1.151s,PASSED
"navigateToUrl(findTestData(""Data Files/Credentials/Cred_Data"").getValue(2, 3))",Chrome 74.0.3729.169,Login,2019-06-04 14:53:42,2019-06-04 14:53:43,1.397s,PASSED
"setText(findTestObject(""Login/input_Enter Email Id_ku-text-e""), findTestData(""Data Files/Credentials/Cred_Data"").getValue(3, 3))",Chrome 74.0.3729.169,,2019-06-04 14:53:43,2019-06-04 14:53:43,0.162s,PASSED
"sendKeys(findTestObject(""Login/input_Enter Password_ku-text-p""), findTestData(""Data Files/Credentials/Cred_Data"").getValue(4, 3))",Chrome 74.0.3729.169,,2019-06-04 14:53:43,2019-06-04 14:53:44,0.176s,PASSED
"click(findTestObject(""Login/input_Enter Password_ku-checkb""))",Chrome 74.0.3729.169,,2019-06-04 14:53:44,2019-06-04 14:53:44,0.100s,PASSED
"click(findTestObject(""Login/span_Submit""))",Chrome 74.0.3729.169,,2019-06-04 14:53:44,2019-06-04 14:53:44,0.120s,PASSED
delay(1),Chrome 74.0.3729.169,,2019-06-04 14:53:44,2019-06-04 14:53:45,1.003s,PASSED
"xpath = ""//span[contains(text(), """" + findTestData(""Data Files/LeadGenerationAndAssign/Assigning"").getValue(1, 1) + """" )]""",Chrome 74.0.3729.169,,2019-06-04 14:53:45,2019-06-04 14:53:45,0.020s,PASSED
println(xpath),Chrome 74.0.3729.169,,2019-06-04 14:53:45,2019-06-04 14:53:45,0.001s,PASSED
to = new com.kms.katalon.core.testobject.TestObject(path),Chrome 74.0.3729.169,,2019-06-04 14:53:45,2019-06-04 14:53:45,0.001s,PASSED
"to.addProperty(""xpath"", EQUALS, xpath)",Chrome 74.0.3729.169,,2019-06-04 14:53:45,2019-06-04 14:53:45,0.000s,PASSED
click(to),Chrome 74.0.3729.169,,2019-06-04 14:53:45,2019-06-04 14:53:45,0.118s,PASSED
Thread.sleep(2),Chrome 74.0.3729.169,,2019-06-04 14:53:45,2019-06-04 14:53:45,0.008s,PASSED
delay(1),Chrome 74.0.3729.169,,2019-06-04 14:53:45,2019-06-04 14:53:46,1.003s,PASSED
"click(findTestObject(""Object Repository/PD1/Business_Details/AddressAndContactDetails/span_Next""))",Chrome 74.0.3729.169,,2019-06-04 14:53:46,2019-06-04 14:53:46,0.084s,PASSED
delay(3),Chrome 74.0.3729.169,,2019-06-04 14:53:46,2019-06-04 14:53:49,3.002s,PASSED
"click(findTestObject(""Object Repository/PD1/Business_Details/Business_Details/Datepicker-enterprises""))",Chrome 74.0.3729.169,,2019-06-04 14:53:49,2019-06-04 14:54:21,31.625s,FAILED
