Suite/Test/Step Name,Browser,Description,Start time,End time,Duration,Status
HappyFlow,Chrome 74.0.3729.169,,2019-05-24 12:16:44,2019-05-24 12:19:37,2m - 52.839s,FAILED
,,,,,,
Test Cases/HappyPath/AssignForPDTestCase,Chrome 74.0.3729.169,,2019-05-24 12:16:45,2019-05-24 12:17:11,26.154s,PASSED
"openBrowser(findTestData(""Data Files/Credentials/Cred_Data"").getValue(2, 2))",Chrome 74.0.3729.169,,2019-05-24 12:16:45,2019-05-24 12:16:51,5.978s,PASSED
maximizeWindow(),Chrome 74.0.3729.169,,2019-05-24 12:16:51,2019-05-24 12:16:52,1.171s,PASSED
"sendKeys(findTestObject(""AssignForPD/SalesManagerLogin/Page_Lead Management/input__jss9""), findTestData(""Data Files/Credentials/Cred_Data"").getValue(3, 2))",Chrome 74.0.3729.169,,2019-05-24 12:16:52,2019-05-24 12:16:52,0.222s,PASSED
"sendKeys(findTestObject(""AssignForPD/SalesManagerLogin/Page_Lead Management/input__password""), findTestData(""Data Files/Credentials/Cred_Data"").getValue(4, 2))",Chrome 74.0.3729.169,,2019-05-24 12:16:52,2019-05-24 12:16:52,0.166s,PASSED
"click(findTestObject(""AssignForPD/SalesManagerLogin/Page_Lead Management/input__jss9 jss12""))",Chrome 74.0.3729.169,,2019-05-24 12:16:52,2019-05-24 12:16:53,0.079s,PASSED
delay(2),Chrome 74.0.3729.169,,2019-05-24 12:16:53,2019-05-24 12:16:55,2.033s,PASSED
"for ([rowNum = 1, rowNum <= findTestData(""Data Files/LeadGenerationAndAssign/Assigning"").getRowNumbers(), (rowNum++)])",Chrome 74.0.3729.169,,2019-05-24 12:16:55,2019-05-24 12:17:10,15.359s,PASSED
closeBrowser(),Chrome 74.0.3729.169,,2019-05-24 12:17:10,2019-05-24 12:17:11,0.718s,PASSED
,,,,,,
Test Cases/HappyPath/RelationshipManagerForPre-QualTestCase,Chrome 74.0.3729.169,,2019-05-24 12:17:11,2019-05-24 12:18:41,1m - 29.934s,PASSED
"openBrowser(findTestData(""Data Files/Credentials/Cred_Data"").getValue(2, 3))",Chrome 74.0.3729.169,,2019-05-24 12:17:11,2019-05-24 12:17:15,3.929s,PASSED
maximizeWindow(),Chrome 74.0.3729.169,,2019-05-24 12:17:15,2019-05-24 12:17:16,1.153s,PASSED
"sendKeys(findTestObject(""RelationshipManagerForPre-Qual/Page_RelatinshipManagerLogin/input_Enter Email Id_ku-text-e""), findTestData(""Data Files/Credentials/Cred_Data"").getValue(3, 3))",Chrome 74.0.3729.169,,2019-05-24 12:17:16,2019-05-24 12:17:16,0.193s,PASSED
"sendKeys(findTestObject(""RelationshipManagerForPre-Qual/Page_RelatinshipManagerLogin/input_Enter Password_ku-text-p""), findTestData(""Data Files/Credentials/Cred_Data"").getValue(4, 3))",Chrome 74.0.3729.169,,2019-05-24 12:17:16,2019-05-24 12:17:17,0.182s,PASSED
"click(findTestObject(""RelationshipManagerForPre-Qual/Page_RelatinshipManagerLogin/input_Enter Password_ku-checkb""))",Chrome 74.0.3729.169,,2019-05-24 12:17:17,2019-05-24 12:17:17,0.105s,PASSED
"click(findTestObject(""RelationshipManagerForPre-Qual/Page_RelatinshipManagerLogin/span_Submit""))",Chrome 74.0.3729.169,,2019-05-24 12:17:17,2019-05-24 12:17:17,0.126s,PASSED
delay(2),Chrome 74.0.3729.169,,2019-05-24 12:17:17,2019-05-24 12:17:19,2.004s,PASSED
"xpath = ""//span[contains(text(), """" + findTestData(""Data Files/LeadGenerationAndAssign/Assigning"").getValue(1, 1) + """" )]""",Chrome 74.0.3729.169,,2019-05-24 12:17:19,2019-05-24 12:17:19,0.020s,PASSED
println(xpath),Chrome 74.0.3729.169,,2019-05-24 12:17:19,2019-05-24 12:17:19,0.000s,PASSED
to = new com.kms.katalon.core.testobject.TestObject(path),Chrome 74.0.3729.169,,2019-05-24 12:17:19,2019-05-24 12:17:19,0.000s,PASSED
"to.addProperty(""xpath"", EQUALS, xpath)",Chrome 74.0.3729.169,,2019-05-24 12:17:19,2019-05-24 12:17:19,0.001s,PASSED
click(to),Chrome 74.0.3729.169,,2019-05-24 12:17:19,2019-05-24 12:17:19,0.110s,PASSED
delay(1),Chrome 74.0.3729.169,,2019-05-24 12:17:19,2019-05-24 12:17:20,1.004s,PASSED
"click(findTestObject(""RelationshipManagerForPre-Qual/Tab_LoanApplicationDetails/span_Loan Application Details""))",Chrome 74.0.3729.169,,2019-05-24 12:17:20,2019-05-24 12:17:20,0.106s,PASSED
"click(findTestObject(""RelationshipManagerForPre-Qual/Tab_LoanApplicationDetails/Tab_LoanApplicationDetails/divRepayfrq""))",Chrome 74.0.3729.169,,2019-05-24 12:17:20,2019-05-24 12:17:20,0.080s,PASSED
delay(2),Chrome 74.0.3729.169,,2019-05-24 12:17:20,2019-05-24 12:17:22,2.004s,PASSED
"xpath1 = ""//div[contains(text(),"""" + findTestData(""Data Files/Pre-qualAndPD1/Pre_qual"").getValue(1, 1) + """")]""",Chrome 74.0.3729.169,,2019-05-24 12:17:22,2019-05-24 12:17:22,0.157s,PASSED
println(xpath1),Chrome 74.0.3729.169,,2019-05-24 12:17:22,2019-05-24 12:17:22,0.001s,PASSED
"to.addProperty(""xpath"", EQUALS, xpath1)",Chrome 74.0.3729.169,,2019-05-24 12:17:22,2019-05-24 12:17:22,0.001s,PASSED
click(to),Chrome 74.0.3729.169,,2019-05-24 12:17:22,2019-05-24 12:17:22,0.120s,PASSED
delay(2),Chrome 74.0.3729.169,,2019-05-24 12:17:22,2019-05-24 12:17:24,2.005s,PASSED
"click(findTestObject(""RelationshipManagerForPre-Qual/Tab_LoanApplicationDetails/Tab_LoanApplicationDetails/divSecurityOffered""))",Chrome 74.0.3729.169,,2019-05-24 12:17:24,2019-05-24 12:17:25,0.271s,PASSED
delay(2),Chrome 74.0.3729.169,,2019-05-24 12:17:25,2019-05-24 12:17:27,2.009s,PASSED
"xpath2 = ""//div[contains(text(),"""" + findTestData(""Data Files/Pre-qualAndPD1/Pre_qual"").getValue(2, 1) + """")]""",Chrome 74.0.3729.169,,2019-05-24 12:17:27,2019-05-24 12:17:27,0.148s,PASSED
"to.addProperty(""xpath"", EQUALS, xpath2)",Chrome 74.0.3729.169,,2019-05-24 12:17:27,2019-05-24 12:17:27,0.000s,PASSED
click(to),Chrome 74.0.3729.169,,2019-05-24 12:17:27,2019-05-24 12:17:27,0.104s,PASSED
delay(2),Chrome 74.0.3729.169,,2019-05-24 12:17:27,2019-05-24 12:17:29,2.003s,PASSED
"click(findTestObject(""RelationshipManagerForPre-Qual/Tab_LoanApplicationDetails/Tab_LoanApplicationDetails/divIDProof""))",Chrome 74.0.3729.169,,2019-05-24 12:17:29,2019-05-24 12:17:29,0.105s,PASSED
delay(2),Chrome 74.0.3729.169,,2019-05-24 12:17:29,2019-05-24 12:17:31,2.006s,PASSED
"xpath3 = ""//div[contains(text(),"""" + findTestData(""Data Files/Pre-qualAndPD1/Pre_qual"").getValue(3, 1) + """")]""",Chrome 74.0.3729.169,,2019-05-24 12:17:31,2019-05-24 12:17:31,0.150s,PASSED
"to.addProperty(""xpath"", EQUALS, xpath3)",Chrome 74.0.3729.169,,2019-05-24 12:17:31,2019-05-24 12:17:31,0.003s,PASSED
click(to),Chrome 74.0.3729.169,,2019-05-24 12:17:31,2019-05-24 12:17:31,0.100s,PASSED
delay(1),Chrome 74.0.3729.169,,2019-05-24 12:17:31,2019-05-24 12:17:32,1.004s,PASSED
"click(findTestObject(""RelationshipManagerForPre-Qual/Tab_LoanApplicationDetails/span_Loan Application Details""))",Chrome 74.0.3729.169,,2019-05-24 12:17:32,2019-05-24 12:17:32,0.179s,PASSED
delay(1),Chrome 74.0.3729.169,,2019-05-24 12:17:32,2019-05-24 12:17:33,1.010s,PASSED
"click(findTestObject(""RelationshipManagerForPre-Qual/Tab_BusinessDetails/span_Business Details""))",Chrome 74.0.3729.169,,2019-05-24 12:17:33,2019-05-24 12:17:34,0.280s,PASSED
delay(2),Chrome 74.0.3729.169,,2019-05-24 12:17:34,2019-05-24 12:17:36,2.005s,PASSED
"sendKeys(findTestObject(""RelationshipManagerForPre-Qual/Tab_BusinessDetails/input__ku-text-businessVintage""), findTestData(""Data Files/Pre-qualAndPD1/Pre_qual"").getValue(4, 1))",Chrome 74.0.3729.169,,2019-05-24 12:17:36,2019-05-24 12:17:36,0.304s,PASSED
delay(1),Chrome 74.0.3729.169,,2019-05-24 12:17:36,2019-05-24 12:17:37,1.003s,PASSED
"click(findTestObject(""RelationshipManagerForPre-Qual/Tab_BusinessDetails/span_Business Details""))",Chrome 74.0.3729.169,,2019-05-24 12:17:37,2019-05-24 12:17:37,0.097s,PASSED
delay(1),Chrome 74.0.3729.169,,2019-05-24 12:17:37,2019-05-24 12:17:38,1.004s,PASSED
"click(findTestObject(""RelationshipManagerForPre-Qual/Tab_PersonalDetails/span_Personal Details""))",Chrome 74.0.3729.169,,2019-05-24 12:17:38,2019-05-24 12:17:38,0.148s,PASSED
delay(1),Chrome 74.0.3729.169,,2019-05-24 12:17:38,2019-05-24 12:17:39,1.006s,PASSED
"click(findTestObject(""RelationshipManagerForPre-Qual/Tab_PersonalDetails/input__ku-datepicker-dob""))",Chrome 74.0.3729.169,,2019-05-24 12:17:39,2019-05-24 12:17:39,0.166s,PASSED
delay(2),Chrome 74.0.3729.169,,2019-05-24 12:17:39,2019-05-24 12:17:41,2.004s,PASSED
"click(findTestObject(""RelationshipManagerForPre-Qual/Tab_PersonalDetails/Tab_Calender/div_2019""))",Chrome 74.0.3729.169,,2019-05-24 12:17:41,2019-05-24 12:17:42,0.359s,PASSED
delay(2),Chrome 74.0.3729.169,,2019-05-24 12:17:42,2019-05-24 12:17:44,2.008s,PASSED
"xpath4 = ""//span[contains(text(),"""" + findTestData(""Data Files/Pre-qualAndPD1/Pre_qual"").getValue(5, 1) + """")]""",Chrome 74.0.3729.169,,2019-05-24 12:17:44,2019-05-24 12:17:44,0.091s,PASSED
println(xpath4),Chrome 74.0.3729.169,,2019-05-24 12:17:44,2019-05-24 12:17:44,0.000s,PASSED
"to.addProperty(""xpath"", EQUALS, xpath4)",Chrome 74.0.3729.169,,2019-05-24 12:17:44,2019-05-24 12:17:44,0.000s,PASSED
click(to),Chrome 74.0.3729.169,,2019-05-24 12:17:44,2019-05-24 12:17:44,0.113s,PASSED
delay(2),Chrome 74.0.3729.169,,2019-05-24 12:17:44,2019-05-24 12:17:46,2.004s,PASSED
"click(findTestObject(""RelationshipManagerForPre-Qual/Tab_PersonalDetails/Tab_Calender/span_27""))",Chrome 74.0.3729.169,,2019-05-24 12:17:46,2019-05-24 12:17:46,0.201s,PASSED
delay(2),Chrome 74.0.3729.169,,2019-05-24 12:17:46,2019-05-24 12:17:48,2.006s,PASSED
"click(findTestObject(""RelationshipManagerForPre-Qual/Tab_PersonalDetails/divGender""))",Chrome 74.0.3729.169,,2019-05-24 12:17:48,2019-05-24 12:17:48,0.153s,PASSED
delay(2),Chrome 74.0.3729.169,,2019-05-24 12:17:48,2019-05-24 12:17:50,2.004s,PASSED
"xpath5 = ""//div[contains(text(),"""" + findTestData(""Data Files/Pre-qualAndPD1/Pre_qual"").getValue(6, 1) + """")]""",Chrome 74.0.3729.169,,2019-05-24 12:17:50,2019-05-24 12:17:51,0.221s,PASSED
"to.addProperty(""xpath"", EQUALS, xpath5)",Chrome 74.0.3729.169,,2019-05-24 12:17:51,2019-05-24 12:17:51,0.000s,PASSED
click(to),Chrome 74.0.3729.169,,2019-05-24 12:17:51,2019-05-24 12:17:51,0.071s,PASSED
delay(1),Chrome 74.0.3729.169,,2019-05-24 12:17:51,2019-05-24 12:17:52,1.005s,PASSED
"click(findTestObject(""RelationshipManagerForPre-Qual/Tab_PersonalDetails/divMaritalStatus""))",Chrome 74.0.3729.169,,2019-05-24 12:17:52,2019-05-24 12:17:52,0.201s,PASSED
delay(1),Chrome 74.0.3729.169,,2019-05-24 12:17:52,2019-05-24 12:17:53,1.006s,PASSED
"xpath6 = ""//div[contains(text(),"""" + findTestData(""Data Files/Pre-qualAndPD1/Pre_qual"").getValue(7, 1) + """")]""",Chrome 74.0.3729.169,,2019-05-24 12:17:53,2019-05-24 12:17:53,0.108s,PASSED
"to.addProperty(""xpath"", EQUALS, xpath6)",Chrome 74.0.3729.169,,2019-05-24 12:17:53,2019-05-24 12:17:53,0.002s,PASSED
click(to),Chrome 74.0.3729.169,,2019-05-24 12:17:53,2019-05-24 12:17:53,0.099s,PASSED
delay(1),Chrome 74.0.3729.169,,2019-05-24 12:17:53,2019-05-24 12:17:54,1.003s,PASSED
"click(findTestObject(""RelationshipManagerForPre-Qual/Tab_PersonalDetails/divEducation""))",Chrome 74.0.3729.169,,2019-05-24 12:17:54,2019-05-24 12:17:54,0.154s,PASSED
delay(1),Chrome 74.0.3729.169,,2019-05-24 12:17:54,2019-05-24 12:17:55,1.012s,PASSED
"click(findTestObject(""RelationshipManagerForPre-Qual/Tab_PersonalDetails/div_SelectEducation""))",Chrome 74.0.3729.169,,2019-05-24 12:17:55,2019-05-24 12:17:56,0.189s,PASSED
delay(1),Chrome 74.0.3729.169,,2019-05-24 12:17:56,2019-05-24 12:17:57,1.002s,PASSED
"sendKeys(findTestObject(""RelationshipManagerForPre-Qual/Tab_PersonalDetails/input__ku-text-languagesKnown""), ""English"")",Chrome 74.0.3729.169,,2019-05-24 12:17:57,2019-05-24 12:17:57,0.245s,PASSED
delay(1),Chrome 74.0.3729.169,,2019-05-24 12:17:57,2019-05-24 12:17:58,1.007s,PASSED
"click(findTestObject(""RelationshipManagerForPre-Qual/Tab_PersonalDetails/span_Personal Details""))",Chrome 74.0.3729.169,,2019-05-24 12:17:58,2019-05-24 12:17:58,0.121s,PASSED
delay(1),Chrome 74.0.3729.169,,2019-05-24 12:17:58,2019-05-24 12:17:59,1.004s,PASSED
"click(findTestObject(""RelationshipManagerForPre-Qual/Tab_IDProof/span_ID-Proof""))",Chrome 74.0.3729.169,,2019-05-24 12:17:59,2019-05-24 12:17:59,0.270s,PASSED
"sendKeys(findTestObject(""RelationshipManagerForPre-Qual/Tab_IDProof/input__ku-text-panApplicant""), findTestData(""Data Files/Pre-qualAndPD1/Pre_qual"").getValue(8, 1))",Chrome 74.0.3729.169,,2019-05-24 12:17:59,2019-05-24 12:17:59,0.246s,PASSED
delay(2),Chrome 74.0.3729.169,,2019-05-24 12:17:59,2019-05-24 12:18:01,2.004s,PASSED
"click(findTestObject(""RelationshipManagerForPre-Qual/Tab_IDProof/input_Yes_radio-group-undefine""))",Chrome 74.0.3729.169,,2019-05-24 12:18:01,2019-05-24 12:18:02,0.219s,PASSED
delay(1),Chrome 74.0.3729.169,,2019-05-24 12:18:02,2019-05-24 12:18:03,1.005s,PASSED
"click(findTestObject(""RelationshipManagerForPre-Qual/Tab_IDProof/span_ID-Proof""))",Chrome 74.0.3729.169,,2019-05-24 12:18:03,2019-05-24 12:18:03,0.109s,PASSED
delay(2),Chrome 74.0.3729.169,,2019-05-24 12:18:03,2019-05-24 12:18:05,2.005s,PASSED
"click(findTestObject(""RelationshipManagerForPre-Qual/Tab_OwnerShipDetails/span_Address and Ownership Det""))",Chrome 74.0.3729.169,,2019-05-24 12:18:05,2019-05-24 12:18:05,0.170s,PASSED
"sendKeys(findTestObject(""RelationshipManagerForPre-Qual/Tab_OwnerShipDetails/input__ku-text-rAddressLine1""), ""Flat No 12, Saptshrungi Mata Appartment, Near Rose Bekary, Lamkhede Mala, Tarwala Nagar, Dindori Road, Panchvati, Nashik"")",Chrome 74.0.3729.169,,2019-05-24 12:18:05,2019-05-24 12:18:06,1.398s,PASSED
"sendKeys(findTestObject(""RelationshipManagerForPre-Qual/Tab_OwnerShipDetails/input_Please enter a Pincode f""), findTestData(""Data Files/Pre-qualAndPD1/Pre_qual"").getValue(9, 1))",Chrome 74.0.3729.169,,2019-05-24 12:18:06,2019-05-24 12:18:06,0.168s,PASSED
"click(findTestObject(""RelationshipManagerForPre-Qual/Tab_OwnerShipDetails/input_State_ku-checkbox-curren""))",Chrome 74.0.3729.169,,2019-05-24 12:18:06,2019-05-24 12:18:07,0.092s,PASSED
delay(1),Chrome 74.0.3729.169,,2019-05-24 12:18:07,2019-05-24 12:18:08,1.006s,PASSED
"click(findTestObject(""RelationshipManagerForPre-Qual/Tab_OwnerShipDetails/span_Address and Ownership Det""))",Chrome 74.0.3729.169,,2019-05-24 12:18:08,2019-05-24 12:18:08,0.122s,PASSED
delay(3),Chrome 74.0.3729.169,,2019-05-24 12:18:08,2019-05-24 12:18:11,3.004s,PASSED
"click(findTestObject(""Object Repository/RelationshipManagerForPre-Qual/Tab_BankDetails/span_Banking Details""))",Chrome 74.0.3729.169,,2019-05-24 12:18:11,2019-05-24 12:18:11,0.179s,PASSED
"sendKeys(findTestObject(""RelationshipManagerForPre-Qual/Tab_BankDetails/input_Bank Account Number_ku-t""), findTestData(""Data Files/Pre-qualAndPD1/Pre_qual"").getValue(10, 1))",Chrome 74.0.3729.169,,2019-05-24 12:18:11,2019-05-24 12:18:11,0.249s,PASSED
"sendKeys(findTestObject(""RelationshipManagerForPre-Qual/Tab_BankDetails/input_IFSC Code Branch Address""), findTestData(""Data Files/Pre-qualAndPD1/Pre_qual"").getValue(11, 1))",Chrome 74.0.3729.169,,2019-05-24 12:18:11,2019-05-24 12:18:11,0.220s,PASSED
delay(1),Chrome 74.0.3729.169,,2019-05-24 12:18:11,2019-05-24 12:18:12,1.005s,PASSED
"click(findTestObject(""RelationshipManagerForPre-Qual/Tab_BankDetails/input_IFSC Code Branch Address""))",Chrome 74.0.3729.169,,2019-05-24 12:18:12,2019-05-24 12:18:13,0.149s,PASSED
delay(2),Chrome 74.0.3729.169,,2019-05-24 12:18:13,2019-05-24 12:18:15,2.006s,PASSED
"sendKeys(findTestObject(""RelationshipManagerForPre-Qual/Tab_BankDetails/input_Vintage of the Bank Acco""), findTestData(""Data Files/Pre-qualAndPD1/Pre_qual"").getValue(12, 1))",Chrome 74.0.3729.169,,2019-05-24 12:18:15,2019-05-24 12:18:15,0.183s,PASSED
delay(1),Chrome 74.0.3729.169,,2019-05-24 12:18:15,2019-05-24 12:18:16,1.004s,PASSED
"click(findTestObject(""Object Repository/RelationshipManagerForPre-Qual/Tab_BankDetails/span_Banking Details""))",Chrome 74.0.3729.169,,2019-05-24 12:18:16,2019-05-24 12:18:16,0.115s,PASSED
delay(1),Chrome 74.0.3729.169,,2019-05-24 12:18:16,2019-05-24 12:18:17,1.002s,PASSED
"click(findTestObject(""RelationshipManagerForPre-Qual/Tab_BankDetails/TakenLoanDetails/span_Other Loan Details""))",Chrome 74.0.3729.169,,2019-05-24 12:18:17,2019-05-24 12:18:17,0.130s,PASSED
"println(findTestData(""Data Files/Pre-qualAndPD1/Pre_qual"").getValue(13, 1) == ""yes"")",Chrome 74.0.3729.169,,2019-05-24 12:18:17,2019-05-24 12:18:17,0.033s,PASSED
"if (findTestData(""Data Files/Pre-qualAndPD1/Pre_qual"").getValue(13, 1) == ""yes"")",Chrome 74.0.3729.169,,2019-05-24 12:18:17,2019-05-24 12:18:26,8.755s,PASSED
"sendKeys(findTestObject(""RelationshipManagerForPre-Qual/ComntAndNext/textarea_Personal Feedback or""), ""Whatever you want"")",Chrome 74.0.3729.169,,2019-05-24 12:18:26,2019-05-24 12:18:26,0.280s,PASSED
"click(findTestObject(""RelationshipManagerForPre-Qual/ComntAndNext/span_Next""))",Chrome 74.0.3729.169,,2019-05-24 12:18:26,2019-05-24 12:18:26,0.104s,PASSED
delay(3),Chrome 74.0.3729.169,,2019-05-24 12:18:26,2019-05-24 12:18:29,3.005s,PASSED
"click(findTestObject(""RelationshipManagerForPre-Qual/Page_ProceedToPD1/Page_Svakarma Finance/span_Next""))",Chrome 74.0.3729.169,,2019-05-24 12:18:29,2019-05-24 12:18:29,0.174s,PASSED
delay(3),Chrome 74.0.3729.169,,2019-05-24 12:18:29,2019-05-24 12:18:32,3.004s,PASSED
"click(findTestObject(""RelationshipManagerForPre-Qual/Page_SelectPD1Location/div_PD1Location""))",Chrome 74.0.3729.169,,2019-05-24 12:18:32,2019-05-24 12:18:32,0.106s,PASSED
delay(2),Chrome 74.0.3729.169,,2019-05-24 12:18:32,2019-05-24 12:18:34,2.005s,PASSED
"xpath7 = ""//div[contains(text(),"""" + findTestData(""Data Files/Pre-qualAndPD1/Pre_qual"").getValue(14, 1) + """")]""",Chrome 74.0.3729.169,,2019-05-24 12:18:34,2019-05-24 12:18:35,0.089s,PASSED
"to.addProperty(""xpath"", EQUALS, xpath7)",Chrome 74.0.3729.169,,2019-05-24 12:18:35,2019-05-24 12:18:35,0.003s,PASSED
click(to),Chrome 74.0.3729.169,,2019-05-24 12:18:35,2019-05-24 12:18:35,0.116s,PASSED
delay(2),Chrome 74.0.3729.169,,2019-05-24 12:18:35,2019-05-24 12:18:37,2.006s,PASSED
"click(findTestObject(""RelationshipManagerForPre-Qual/Page_SelectPD1Location/span_Next""))",Chrome 74.0.3729.169,,2019-05-24 12:18:37,2019-05-24 12:18:37,0.219s,PASSED
delay(3),Chrome 74.0.3729.169,,2019-05-24 12:18:37,2019-05-24 12:18:40,3.008s,PASSED
closeBrowser(),Chrome 74.0.3729.169,,2019-05-24 12:18:40,2019-05-24 12:18:41,0.757s,PASSED
,,,,,,
Test Cases/HappyPath/PD1_HappyPath,Chrome 74.0.3729.169,,2019-05-24 12:18:41,2019-05-24 12:19:36,55.641s,FAILED
openBrowser(null),Chrome 74.0.3729.169,,2019-05-24 12:18:41,2019-05-24 12:18:44,2.444s,PASSED
maximizeWindow(null),Chrome 74.0.3729.169,,2019-05-24 12:18:44,2019-05-24 12:18:45,1.164s,PASSED
"navigateToUrl(findTestData(""Data Files/Credentials/Cred_Data"").getValue(2, 3))",Chrome 74.0.3729.169,Login,2019-05-24 12:18:45,2019-05-24 12:18:47,1.996s,PASSED
"setText(findTestObject(""Login/input_Enter Email Id_ku-text-e""), findTestData(""Data Files/Credentials/Cred_Data"").getValue(3, 3))",Chrome 74.0.3729.169,,2019-05-24 12:18:47,2019-05-24 12:18:47,0.227s,PASSED
"sendKeys(findTestObject(""Login/input_Enter Password_ku-text-p""), findTestData(""Data Files/Credentials/Cred_Data"").getValue(4, 3))",Chrome 74.0.3729.169,,2019-05-24 12:18:47,2019-05-24 12:18:47,0.186s,PASSED
"click(findTestObject(""Login/input_Enter Password_ku-checkb""))",Chrome 74.0.3729.169,,2019-05-24 12:18:47,2019-05-24 12:18:47,0.121s,PASSED
"click(findTestObject(""Login/span_Submit""))",Chrome 74.0.3729.169,,2019-05-24 12:18:47,2019-05-24 12:18:48,0.115s,PASSED
delay(1),Chrome 74.0.3729.169,,2019-05-24 12:18:48,2019-05-24 12:18:49,1.003s,PASSED
"xpath = ""//span[contains(text(), """" + findTestData(""Data Files/LeadGenerationAndAssign/Assigning"").getValue(1, 1) + """" )]""",Chrome 74.0.3729.169,,2019-05-24 12:18:49,2019-05-24 12:18:49,0.076s,PASSED
println(xpath),Chrome 74.0.3729.169,,2019-05-24 12:18:49,2019-05-24 12:18:49,0.001s,PASSED
to = new com.kms.katalon.core.testobject.TestObject(path),Chrome 74.0.3729.169,,2019-05-24 12:18:49,2019-05-24 12:18:49,0.002s,PASSED
"to.addProperty(""xpath"", EQUALS, xpath)",Chrome 74.0.3729.169,,2019-05-24 12:18:49,2019-05-24 12:18:49,0.002s,PASSED
click(to),Chrome 74.0.3729.169,,2019-05-24 12:18:49,2019-05-24 12:18:49,0.111s,PASSED
Thread.sleep(2),Chrome 74.0.3729.169,,2019-05-24 12:18:49,2019-05-24 12:18:49,0.011s,PASSED
delay(1),Chrome 74.0.3729.169,,2019-05-24 12:18:49,2019-05-24 12:18:50,1.004s,PASSED
"click(findTestObject(""Object Repository/PD1/PD Details/div_PD Details""))",Chrome 74.0.3729.169,,2019-05-24 12:18:50,2019-05-24 12:18:50,0.195s,PASSED
delay(1),Chrome 74.0.3729.169,,2019-05-24 12:18:50,2019-05-24 12:18:51,1.004s,PASSED
"sendKeys(findTestObject(""Object Repository/PD1/PD Details/Page_Svakarma Finance/input_Person who accompanied the PD officer_ku-text-coOfficerR""), Keys.chord(CONTROL, ""a""))",Chrome 74.0.3729.169,,2019-05-24 12:18:51,2019-05-24 12:18:51,0.201s,PASSED
delay(1),Chrome 74.0.3729.169,,2019-05-24 12:18:51,2019-05-24 12:18:52,1.005s,PASSED
"sendKeys(findTestObject(""Object Repository/PD1/PD Details/Page_Svakarma Finance/input_Person who accompanied the PD officer_ku-text-coOfficerR""), Keys.chord(BACK_SPACE))",Chrome 74.0.3729.169,,2019-05-24 12:18:52,2019-05-24 12:18:52,0.072s,PASSED
"sendKeys(findTestObject(""Object Repository/PD1/PD Details/Page_Svakarma Finance/input_Person who accompanied the PD officer_ku-text-coOfficerR""), findTestData(""Data Files/Pre-qualAndPD1/Pre_qual"").getValue(15, 1))",Chrome 74.0.3729.169,,2019-05-24 12:18:52,2019-05-24 12:18:52,0.245s,PASSED
"click(findTestObject(""Object Repository/PD1/PD Details/NameOfPersonMet""))",Chrome 74.0.3729.169,,2019-05-24 12:18:52,2019-05-24 12:18:53,0.081s,PASSED
"sendKeys(findTestObject(""Object Repository/PD1/PD Details/NameOfPersonMet""), Keys.chord(CONTROL, ""a""))",Chrome 74.0.3729.169,,2019-05-24 12:18:53,2019-05-24 12:18:53,0.077s,PASSED
delay(1),Chrome 74.0.3729.169,,2019-05-24 12:18:53,2019-05-24 12:18:54,1.003s,PASSED
"sendKeys(findTestObject(""Object Repository/PD1/PD Details/NameOfPersonMet""), Keys.chord(BACK_SPACE))",Chrome 74.0.3729.169,,2019-05-24 12:18:54,2019-05-24 12:18:54,0.040s,PASSED
"sendKeys(findTestObject(""Object Repository/PD1/PD Details/NameOfPersonMet""), findTestData(""Data Files/Pre-qualAndPD1/Pre_qual"").getValue(16, 1))",Chrome 74.0.3729.169,,2019-05-24 12:18:54,2019-05-24 12:18:54,0.218s,PASSED
delay(1),Chrome 74.0.3729.169,,2019-05-24 12:18:54,2019-05-24 12:18:55,1.004s,PASSED
"click(findTestObject(""Object Repository/PD1/PD Details/DesignationOfPersonMet_Dropdown""))",Chrome 74.0.3729.169,,2019-05-24 12:18:55,2019-05-24 12:18:55,0.086s,PASSED
delay(2),Chrome 74.0.3729.169,,2019-05-24 12:18:55,2019-05-24 12:18:57,2.002s,PASSED
"xpath8 = ""//div[contains(text(),"""" + findTestData(""Data Files/Pre-qualAndPD1/Pre_qual"").getValue(17, 1) + """")]""",Chrome 74.0.3729.169,,2019-05-24 12:18:57,2019-05-24 12:18:57,0.027s,PASSED
"to.addProperty(""xpath"", EQUALS, xpath8)",Chrome 74.0.3729.169,,2019-05-24 12:18:57,2019-05-24 12:18:57,0.000s,PASSED
click(to),Chrome 74.0.3729.169,,2019-05-24 12:18:57,2019-05-24 12:18:57,0.083s,PASSED
delay(1),Chrome 74.0.3729.169,,2019-05-24 12:18:57,2019-05-24 12:18:58,1.004s,PASSED
"click(findTestObject(""Object Repository/PD1/PD Details/Who were the queries answ_Dropdown""))",Chrome 74.0.3729.169,,2019-05-24 12:18:58,2019-05-24 12:18:58,0.237s,PASSED
delay(1),Chrome 74.0.3729.169,,2019-05-24 12:18:58,2019-05-24 12:18:59,1.005s,PASSED
"xpath9 = ""//div[contains(text(),"""" + findTestData(""Data Files/Pre-qualAndPD1/Pre_qual"").getValue(18, 1) + """")]""",Chrome 74.0.3729.169,,2019-05-24 12:18:59,2019-05-24 12:18:59,0.139s,PASSED
"to.addProperty(""xpath"", EQUALS, xpath9)",Chrome 74.0.3729.169,,2019-05-24 12:18:59,2019-05-24 12:18:59,0.011s,PASSED
click(to),Chrome 74.0.3729.169,,2019-05-24 12:18:59,2019-05-24 12:19:00,0.174s,PASSED
delay(1),Chrome 74.0.3729.169,,2019-05-24 12:19:00,2019-05-24 12:19:01,1.003s,PASSED
"click(findTestObject(""Object Repository/PD1/PD Details/PD Details_Next""))",Chrome 74.0.3729.169,,2019-05-24 12:19:01,2019-05-24 12:19:01,0.184s,PASSED
delay(2),Chrome 74.0.3729.169,,2019-05-24 12:19:01,2019-05-24 12:19:03,2.005s,PASSED
"scrollToElement(findTestObject(""PD1/LoanRequirements/dropdown-schemeDescription""), 1)",Chrome 74.0.3729.169,,2019-05-24 12:19:03,2019-05-24 12:19:03,0.102s,PASSED
"println(findTestData(""Data Files/Pre-qualAndPD1/Pre_qual"").getValue(19, 1) == ""yes"")",Chrome 74.0.3729.169,,2019-05-24 12:19:03,2019-05-24 12:19:03,0.044s,PASSED
"if (findTestData(""Data Files/Pre-qualAndPD1/Pre_qual"").getValue(19, 1) == ""yes"")",Chrome 74.0.3729.169,,2019-05-24 12:19:03,2019-05-24 12:19:05,2.181s,PASSED
"click(findTestObject(""PD1/LoanRequirements/dropdown-schemeDescription""))",Chrome 74.0.3729.169,,2019-05-24 12:19:05,2019-05-24 12:19:05,0.078s,PASSED
delay(1),Chrome 74.0.3729.169,,2019-05-24 12:19:05,2019-05-24 12:19:06,1.004s,PASSED
"sendKeys(findTestObject(""PD1/LoanRequirements/dropdown-schemeDescription""), Keys.chord(CONTROL, ""a""))",Chrome 74.0.3729.169,,2019-05-24 12:19:06,2019-05-24 12:19:06,0.143s,PASSED
delay(1),Chrome 74.0.3729.169,,2019-05-24 12:19:06,2019-05-24 12:19:07,1.003s,PASSED
"sendKeys(findTestObject(""PD1/LoanRequirements/dropdown-schemeDescription""), Keys.chord(BACK_SPACE))",Chrome 74.0.3729.169,,2019-05-24 12:19:07,2019-05-24 12:19:07,0.046s,PASSED
"click(findTestObject(""PD1/LoanRequirements/ScehemeValue_WORKING CAPITAL MSME""))",Chrome 74.0.3729.169,,2019-05-24 12:19:07,2019-05-24 12:19:08,0.126s,PASSED
"scrollToElement(findTestObject(""PD1/LoanRequirements/Text-valueOfAsset""), 0)",Chrome 74.0.3729.169,,2019-05-24 12:19:08,2019-05-24 12:19:08,0.056s,PASSED
"click(findTestObject(""PD1/LoanRequirements/Text-valueOfAsset""), STOP_ON_FAILURE)",Chrome 74.0.3729.169,,2019-05-24 12:19:08,2019-05-24 12:19:08,0.115s,PASSED
"sendKeys(findTestObject(""PD1/LoanRequirements/Text-valueOfAsset""), Keys.chord(CONTROL, ""a""))",Chrome 74.0.3729.169,,2019-05-24 12:19:08,2019-05-24 12:19:08,0.058s,PASSED
delay(1),Chrome 74.0.3729.169,,2019-05-24 12:19:08,2019-05-24 12:19:09,1.005s,PASSED
"sendKeys(findTestObject(""PD1/LoanRequirements/Text-valueOfAsset""), Keys.chord(BACK_SPACE))",Chrome 74.0.3729.169,,2019-05-24 12:19:09,2019-05-24 12:19:09,0.157s,PASSED
"sendKeys(findTestObject(""PD1/LoanRequirements/Text-valueOfAsset""), ""4500000"")",Chrome 74.0.3729.169,,2019-05-24 12:19:09,2019-05-24 12:19:09,0.141s,PASSED
delay(1),Chrome 74.0.3729.169,,2019-05-24 12:19:09,2019-05-24 12:19:10,1.004s,PASSED
"sendKeys(findTestObject(""PD1/LoanRequirements/Text-commentsOnSecurity""), Keys.chord(CONTROL, ""a""))",Chrome 74.0.3729.169,,2019-05-24 12:19:10,2019-05-24 12:19:10,0.187s,PASSED
delay(1),Chrome 74.0.3729.169,,2019-05-24 12:19:10,2019-05-24 12:19:11,1.004s,PASSED
"sendKeys(findTestObject(""PD1/LoanRequirements/Text-commentsOnSecurity""), Keys.chord(BACK_SPACE))",Chrome 74.0.3729.169,,2019-05-24 12:19:11,2019-05-24 12:19:11,0.131s,PASSED
"sendKeys(findTestObject(""PD1/LoanRequirements/Text-commentsOnSecurity""), ""Good security"")",Chrome 74.0.3729.169,,2019-05-24 12:19:11,2019-05-24 12:19:12,0.275s,PASSED
"click(findTestObject(""PD1/LoanRequirements/LoanRequirement_Next""))",Chrome 74.0.3729.169,,2019-05-24 12:19:12,2019-05-24 12:19:12,0.086s,PASSED
delay(1),Chrome 74.0.3729.169,,2019-05-24 12:19:12,2019-05-24 12:19:13,1.003s,PASSED
"click(findTestObject(""Object Repository/PD1/Personal_Details/input__radio-group-undefined""))",Chrome 74.0.3729.169,,2019-05-24 12:19:13,2019-05-24 12:19:13,0.203s,PASSED
"scrollToElement(findTestObject(""Object Repository/PD1/Personal_Details/ID_Proof_CheckBox""), 0)",Chrome 74.0.3729.169,,2019-05-24 12:19:13,2019-05-24 12:19:13,0.061s,PASSED
delay(2),Chrome 74.0.3729.169,,2019-05-24 12:19:13,2019-05-24 12:19:15,2.005s,PASSED
"sendKeys(findTestObject(""Object Repository/PD1/Personal_Details/input__ku-text-fathersName""), ""Agarwal"")",Chrome 74.0.3729.169,,2019-05-24 12:19:15,2019-05-24 12:19:16,0.469s,PASSED
"click(findTestObject(""RelationshipManagerForPre-Qual/Page_Add-coapplicant/input_Voter ID_ku-checkbox-coApplicantCheck""))",Chrome 74.0.3729.169,,2019-05-24 12:19:16,2019-05-24 12:19:16,0.149s,PASSED
delay(2),Chrome 74.0.3729.169,,2019-05-24 12:19:16,2019-05-24 12:19:18,2.004s,PASSED
"sendKeys(findTestObject(""RelationshipManagerForPre-Qual/Page_Add-coapplicant/input__ku-text-numberCoApplicant""), findTestData(""Data Files/Pre-qualAndPD1/Pre_qual"").getValue(20, 1))",Chrome 74.0.3729.169,,2019-05-24 12:19:18,2019-05-24 12:19:18,0.252s,PASSED
delay(2),Chrome 74.0.3729.169,,2019-05-24 12:19:18,2019-05-24 12:19:20,2.004s,PASSED
"click(findTestObject(""Object Repository/PD1/Personal_Details/ID_Proof_CheckBox""))",Chrome 74.0.3729.169,,2019-05-24 12:19:20,2019-05-24 12:19:20,0.226s,PASSED
"click(findTestObject(""Object Repository/PD1/Personal_Details/Bureau_CheckBox""))",Chrome 74.0.3729.169,,2019-05-24 12:19:20,2019-05-24 12:19:20,0.128s,PASSED
delay(3),Chrome 74.0.3729.169,,2019-05-24 12:19:20,2019-05-24 12:19:23,3.003s,PASSED
"click(findTestObject(""Object Repository/PD1/Personal_Details/span_Next""))",Chrome 74.0.3729.169,,2019-05-24 12:19:23,2019-05-24 12:19:23,0.117s,PASSED
delay(3),Chrome 74.0.3729.169,,2019-05-24 12:19:23,2019-05-24 12:19:26,3.003s,PASSED
"for ([numberOfCoapplicants = 1, numberOfCoapplicants <= findTestData(""Data Files/Pre-qualAndPD1/Pre_qual"").getRowNumbers(), (numberOfCoapplicants++)])",Chrome 74.0.3729.169,,2019-05-24 12:19:26,2019-05-24 12:19:36,9.793s,FAILED
