Suite/Test/Step Name,Browser,Description,Start time,End time,Duration,Status
HappyFlow,Chrome 74.0.3729.169,,2019-06-03 15:21:59,2019-06-03 15:24:42,2m - 43.136s,FAILED
,,,,,,
Test Cases/HappyPath/AssignForPDTestCase,Chrome 74.0.3729.169,,2019-06-03 15:21:59,2019-06-03 15:22:25,26.521s,PASSED
"openBrowser(findTestData(""Data Files/Credentials/Cred_Data"").getValue(2, 2))",Chrome 74.0.3729.169,,2019-06-03 15:21:59,2019-06-03 15:22:06,6.226s,PASSED
maximizeWindow(),Chrome 74.0.3729.169,,2019-06-03 15:22:06,2019-06-03 15:22:07,1.153s,PASSED
"sendKeys(findTestObject(""AssignForPD/SalesManagerLogin/Page_Lead Management/input__jss9""), findTestData(""Data Files/Credentials/Cred_Data"").getValue(3, 2))",Chrome 74.0.3729.169,,2019-06-03 15:22:07,2019-06-03 15:22:07,0.239s,PASSED
"sendKeys(findTestObject(""AssignForPD/SalesManagerLogin/Page_Lead Management/input__password""), findTestData(""Data Files/Credentials/Cred_Data"").getValue(4, 2))",Chrome 74.0.3729.169,,2019-06-03 15:22:07,2019-06-03 15:22:07,0.180s,PASSED
"click(findTestObject(""AssignForPD/SalesManagerLogin/Page_Lead Management/input__jss9 jss12""))",Chrome 74.0.3729.169,,2019-06-03 15:22:07,2019-06-03 15:22:07,0.083s,PASSED
delay(2),Chrome 74.0.3729.169,,2019-06-03 15:22:07,2019-06-03 15:22:09,2.032s,PASSED
"for ([rowNum = 1, rowNum <= findTestData(""Data Files/LeadGenerationAndAssign/Assigning"").getRowNumbers(), (rowNum++)])",Chrome 74.0.3729.169,,2019-06-03 15:22:09,2019-06-03 15:22:25,15.320s,PASSED
closeBrowser(),Chrome 74.0.3729.169,,2019-06-03 15:22:25,2019-06-03 15:22:25,0.760s,PASSED
,,,,,,
Test Cases/HappyPath/RelationshipManagerForPre-QualTestCase,Chrome 74.0.3729.169,,2019-06-03 15:22:25,2019-06-03 15:23:57,1m - 31.327s,PASSED
"openBrowser(findTestData(""Data Files/Credentials/Cred_Data"").getValue(2, 3))",Chrome 74.0.3729.169,,2019-06-03 15:22:26,2019-06-03 15:22:30,4.582s,PASSED
maximizeWindow(),Chrome 74.0.3729.169,,2019-06-03 15:22:30,2019-06-03 15:22:32,1.191s,PASSED
"sendKeys(findTestObject(""RelationshipManagerForPre-Qual/Page_RelatinshipManagerLogin/input_Enter Email Id_ku-text-e""), findTestData(""Data Files/Credentials/Cred_Data"").getValue(3, 3))",Chrome 74.0.3729.169,,2019-06-03 15:22:32,2019-06-03 15:22:32,0.172s,PASSED
"sendKeys(findTestObject(""RelationshipManagerForPre-Qual/Page_RelatinshipManagerLogin/input_Enter Password_ku-text-p""), findTestData(""Data Files/Credentials/Cred_Data"").getValue(4, 3))",Chrome 74.0.3729.169,,2019-06-03 15:22:32,2019-06-03 15:22:32,0.180s,PASSED
"click(findTestObject(""RelationshipManagerForPre-Qual/Page_RelatinshipManagerLogin/input_Enter Password_ku-checkb""))",Chrome 74.0.3729.169,,2019-06-03 15:22:32,2019-06-03 15:22:32,0.095s,PASSED
"click(findTestObject(""RelationshipManagerForPre-Qual/Page_RelatinshipManagerLogin/span_Submit""))",Chrome 74.0.3729.169,,2019-06-03 15:22:32,2019-06-03 15:22:32,0.111s,PASSED
delay(2),Chrome 74.0.3729.169,,2019-06-03 15:22:32,2019-06-03 15:22:34,2.003s,PASSED
"xpath = ""//span[contains(text(), """" + findTestData(""Data Files/LeadGenerationAndAssign/Assigning"").getValue(1, 1) + """" )]""",Chrome 74.0.3729.169,,2019-06-03 15:22:34,2019-06-03 15:22:34,0.073s,PASSED
println(xpath),Chrome 74.0.3729.169,,2019-06-03 15:22:34,2019-06-03 15:22:34,0.003s,PASSED
to = new com.kms.katalon.core.testobject.TestObject(path),Chrome 74.0.3729.169,,2019-06-03 15:22:34,2019-06-03 15:22:34,0.001s,PASSED
"to.addProperty(""xpath"", EQUALS, xpath)",Chrome 74.0.3729.169,,2019-06-03 15:22:34,2019-06-03 15:22:34,0.004s,PASSED
click(to),Chrome 74.0.3729.169,,2019-06-03 15:22:34,2019-06-03 15:22:34,0.123s,PASSED
delay(1),Chrome 74.0.3729.169,,2019-06-03 15:22:34,2019-06-03 15:22:35,1.004s,PASSED
"click(findTestObject(""RelationshipManagerForPre-Qual/Tab_LoanApplicationDetails/span_Loan Application Details""))",Chrome 74.0.3729.169,,2019-06-03 15:22:35,2019-06-03 15:22:36,0.157s,PASSED
"click(findTestObject(""RelationshipManagerForPre-Qual/Tab_LoanApplicationDetails/Tab_LoanApplicationDetails/divRepayfrq""))",Chrome 74.0.3729.169,,2019-06-03 15:22:36,2019-06-03 15:22:36,0.081s,PASSED
delay(2),Chrome 74.0.3729.169,,2019-06-03 15:22:36,2019-06-03 15:22:38,2.004s,PASSED
"xpath1 = ""//div[contains(text(),"""" + findTestData(""Data Files/Pre-qualAndPD1/Pre_qual"").getValue(1, 1) + """")]""",Chrome 74.0.3729.169,,2019-06-03 15:22:38,2019-06-03 15:22:38,0.135s,PASSED
println(xpath1),Chrome 74.0.3729.169,,2019-06-03 15:22:38,2019-06-03 15:22:38,0.009s,PASSED
"to.addProperty(""xpath"", EQUALS, xpath1)",Chrome 74.0.3729.169,,2019-06-03 15:22:38,2019-06-03 15:22:38,0.002s,PASSED
click(to),Chrome 74.0.3729.169,,2019-06-03 15:22:38,2019-06-03 15:22:38,0.123s,PASSED
delay(2),Chrome 74.0.3729.169,,2019-06-03 15:22:38,2019-06-03 15:22:40,2.003s,PASSED
"click(findTestObject(""RelationshipManagerForPre-Qual/Tab_LoanApplicationDetails/Tab_LoanApplicationDetails/divSecurityOffered""))",Chrome 74.0.3729.169,,2019-06-03 15:22:40,2019-06-03 15:22:40,0.102s,PASSED
delay(2),Chrome 74.0.3729.169,,2019-06-03 15:22:40,2019-06-03 15:22:42,2.003s,PASSED
"xpath2 = ""//div[contains(text(),"""" + findTestData(""Data Files/Pre-qualAndPD1/Pre_qual"").getValue(2, 1) + """")]""",Chrome 74.0.3729.169,,2019-06-03 15:22:42,2019-06-03 15:22:42,0.088s,PASSED
"to.addProperty(""xpath"", EQUALS, xpath2)",Chrome 74.0.3729.169,,2019-06-03 15:22:42,2019-06-03 15:22:42,0.005s,PASSED
click(to),Chrome 74.0.3729.169,,2019-06-03 15:22:42,2019-06-03 15:22:42,0.104s,PASSED
delay(2),Chrome 74.0.3729.169,,2019-06-03 15:22:42,2019-06-03 15:22:44,2.005s,PASSED
"click(findTestObject(""RelationshipManagerForPre-Qual/Tab_LoanApplicationDetails/Tab_LoanApplicationDetails/divIDProof""))",Chrome 74.0.3729.169,,2019-06-03 15:22:44,2019-06-03 15:22:44,0.206s,PASSED
delay(2),Chrome 74.0.3729.169,,2019-06-03 15:22:44,2019-06-03 15:22:46,2.009s,PASSED
"xpath3 = ""//div[contains(text(),"""" + findTestData(""Data Files/Pre-qualAndPD1/Pre_qual"").getValue(3, 1) + """")]""",Chrome 74.0.3729.169,,2019-06-03 15:22:46,2019-06-03 15:22:47,0.123s,PASSED
"to.addProperty(""xpath"", EQUALS, xpath3)",Chrome 74.0.3729.169,,2019-06-03 15:22:47,2019-06-03 15:22:47,0.003s,PASSED
click(to),Chrome 74.0.3729.169,,2019-06-03 15:22:47,2019-06-03 15:22:47,0.137s,PASSED
delay(1),Chrome 74.0.3729.169,,2019-06-03 15:22:47,2019-06-03 15:22:48,1.004s,PASSED
"click(findTestObject(""RelationshipManagerForPre-Qual/Tab_LoanApplicationDetails/span_Loan Application Details""))",Chrome 74.0.3729.169,,2019-06-03 15:22:48,2019-06-03 15:22:48,0.115s,PASSED
delay(1),Chrome 74.0.3729.169,,2019-06-03 15:22:48,2019-06-03 15:22:49,1.005s,PASSED
"click(findTestObject(""RelationshipManagerForPre-Qual/Tab_BusinessDetails/span_Business Details""))",Chrome 74.0.3729.169,,2019-06-03 15:22:49,2019-06-03 15:22:49,0.094s,PASSED
delay(2),Chrome 74.0.3729.169,,2019-06-03 15:22:49,2019-06-03 15:22:51,2.005s,PASSED
"sendKeys(findTestObject(""RelationshipManagerForPre-Qual/Tab_BusinessDetails/input__ku-text-businessVintage""), findTestData(""Data Files/Pre-qualAndPD1/Pre_qual"").getValue(4, 1))",Chrome 74.0.3729.169,,2019-06-03 15:22:51,2019-06-03 15:22:51,0.225s,PASSED
delay(1),Chrome 74.0.3729.169,,2019-06-03 15:22:51,2019-06-03 15:22:52,1.004s,PASSED
"click(findTestObject(""RelationshipManagerForPre-Qual/Tab_BusinessDetails/span_Business Details""))",Chrome 74.0.3729.169,,2019-06-03 15:22:52,2019-06-03 15:22:52,0.114s,PASSED
delay(1),Chrome 74.0.3729.169,,2019-06-03 15:22:52,2019-06-03 15:22:53,1.006s,PASSED
"click(findTestObject(""RelationshipManagerForPre-Qual/Tab_PersonalDetails/span_Personal Details""))",Chrome 74.0.3729.169,,2019-06-03 15:22:53,2019-06-03 15:22:53,0.164s,PASSED
delay(1),Chrome 74.0.3729.169,,2019-06-03 15:22:53,2019-06-03 15:22:54,1.005s,PASSED
"click(findTestObject(""RelationshipManagerForPre-Qual/Tab_PersonalDetails/input__ku-datepicker-dob""))",Chrome 74.0.3729.169,,2019-06-03 15:22:54,2019-06-03 15:22:55,0.181s,PASSED
delay(2),Chrome 74.0.3729.169,,2019-06-03 15:22:55,2019-06-03 15:22:57,2.006s,PASSED
"click(findTestObject(""RelationshipManagerForPre-Qual/Tab_PersonalDetails/Tab_Calender/div_2019""))",Chrome 74.0.3729.169,,2019-06-03 15:22:57,2019-06-03 15:22:57,0.198s,PASSED
delay(2),Chrome 74.0.3729.169,,2019-06-03 15:22:57,2019-06-03 15:22:59,2.005s,PASSED
"xpath4 = ""//span[contains(text(),"""" + findTestData(""Data Files/Pre-qualAndPD1/Pre_qual"").getValue(5, 1) + """")]""",Chrome 74.0.3729.169,,2019-06-03 15:22:59,2019-06-03 15:22:59,0.109s,PASSED
println(xpath4),Chrome 74.0.3729.169,,2019-06-03 15:22:59,2019-06-03 15:22:59,0.002s,PASSED
"to.addProperty(""xpath"", EQUALS, xpath4)",Chrome 74.0.3729.169,,2019-06-03 15:22:59,2019-06-03 15:22:59,0.001s,PASSED
click(to),Chrome 74.0.3729.169,,2019-06-03 15:22:59,2019-06-03 15:22:59,0.103s,PASSED
delay(2),Chrome 74.0.3729.169,,2019-06-03 15:22:59,2019-06-03 15:23:01,2.004s,PASSED
"click(findTestObject(""RelationshipManagerForPre-Qual/Tab_PersonalDetails/Tab_Calender/span_27""))",Chrome 74.0.3729.169,,2019-06-03 15:23:01,2019-06-03 15:23:01,0.211s,PASSED
delay(2),Chrome 74.0.3729.169,,2019-06-03 15:23:01,2019-06-03 15:23:03,2.150s,PASSED
"click(findTestObject(""RelationshipManagerForPre-Qual/Tab_PersonalDetails/divGender""))",Chrome 74.0.3729.169,,2019-06-03 15:23:03,2019-06-03 15:23:04,0.213s,PASSED
delay(2),Chrome 74.0.3729.169,,2019-06-03 15:23:04,2019-06-03 15:23:06,2.006s,PASSED
"xpath5 = ""//div[contains(text(),"""" + findTestData(""Data Files/Pre-qualAndPD1/Pre_qual"").getValue(6, 1) + """")]""",Chrome 74.0.3729.169,,2019-06-03 15:23:06,2019-06-03 15:23:06,0.093s,PASSED
"to.addProperty(""xpath"", EQUALS, xpath5)",Chrome 74.0.3729.169,,2019-06-03 15:23:06,2019-06-03 15:23:06,0.002s,PASSED
click(to),Chrome 74.0.3729.169,,2019-06-03 15:23:06,2019-06-03 15:23:06,0.113s,PASSED
delay(1),Chrome 74.0.3729.169,,2019-06-03 15:23:06,2019-06-03 15:23:07,1.004s,PASSED
"click(findTestObject(""RelationshipManagerForPre-Qual/Tab_PersonalDetails/divMaritalStatus""))",Chrome 74.0.3729.169,,2019-06-03 15:23:07,2019-06-03 15:23:07,0.152s,PASSED
delay(1),Chrome 74.0.3729.169,,2019-06-03 15:23:07,2019-06-03 15:23:08,1.005s,PASSED
"xpath6 = ""//div[contains(text(),"""" + findTestData(""Data Files/Pre-qualAndPD1/Pre_qual"").getValue(7, 1) + """")]""",Chrome 74.0.3729.169,,2019-06-03 15:23:08,2019-06-03 15:23:08,0.109s,PASSED
"to.addProperty(""xpath"", EQUALS, xpath6)",Chrome 74.0.3729.169,,2019-06-03 15:23:08,2019-06-03 15:23:08,0.001s,PASSED
click(to),Chrome 74.0.3729.169,,2019-06-03 15:23:08,2019-06-03 15:23:08,0.093s,PASSED
delay(1),Chrome 74.0.3729.169,,2019-06-03 15:23:08,2019-06-03 15:23:09,1.003s,PASSED
"click(findTestObject(""RelationshipManagerForPre-Qual/Tab_PersonalDetails/divEducation""))",Chrome 74.0.3729.169,,2019-06-03 15:23:09,2019-06-03 15:23:09,0.120s,PASSED
delay(1),Chrome 74.0.3729.169,,2019-06-03 15:23:09,2019-06-03 15:23:10,1.003s,PASSED
"click(findTestObject(""RelationshipManagerForPre-Qual/Tab_PersonalDetails/div_SelectEducation""))",Chrome 74.0.3729.169,,2019-06-03 15:23:10,2019-06-03 15:23:11,0.144s,PASSED
delay(1),Chrome 74.0.3729.169,,2019-06-03 15:23:11,2019-06-03 15:23:12,1.005s,PASSED
"sendKeys(findTestObject(""RelationshipManagerForPre-Qual/Tab_PersonalDetails/input__ku-text-languagesKnown""), ""English"")",Chrome 74.0.3729.169,,2019-06-03 15:23:12,2019-06-03 15:23:12,0.295s,PASSED
delay(1),Chrome 74.0.3729.169,,2019-06-03 15:23:12,2019-06-03 15:23:13,1.005s,PASSED
"click(findTestObject(""RelationshipManagerForPre-Qual/Tab_PersonalDetails/span_Personal Details""))",Chrome 74.0.3729.169,,2019-06-03 15:23:13,2019-06-03 15:23:13,0.148s,PASSED
delay(1),Chrome 74.0.3729.169,,2019-06-03 15:23:13,2019-06-03 15:23:14,1.006s,PASSED
"click(findTestObject(""RelationshipManagerForPre-Qual/Tab_IDProof/span_ID-Proof""))",Chrome 74.0.3729.169,,2019-06-03 15:23:14,2019-06-03 15:23:14,0.164s,PASSED
"sendKeys(findTestObject(""RelationshipManagerForPre-Qual/Tab_IDProof/input__ku-text-panApplicant""), findTestData(""Data Files/Pre-qualAndPD1/Pre_qual"").getValue(8, 1))",Chrome 74.0.3729.169,,2019-06-03 15:23:14,2019-06-03 15:23:14,0.221s,PASSED
delay(2),Chrome 74.0.3729.169,,2019-06-03 15:23:14,2019-06-03 15:23:16,2.004s,PASSED
"click(findTestObject(""RelationshipManagerForPre-Qual/Tab_IDProof/input_Yes_radio-group-undefine""))",Chrome 74.0.3729.169,,2019-06-03 15:23:16,2019-06-03 15:23:17,0.206s,PASSED
delay(1),Chrome 74.0.3729.169,,2019-06-03 15:23:17,2019-06-03 15:23:18,1.007s,PASSED
"click(findTestObject(""RelationshipManagerForPre-Qual/Tab_IDProof/span_ID-Proof""))",Chrome 74.0.3729.169,,2019-06-03 15:23:18,2019-06-03 15:23:18,0.159s,PASSED
delay(2),Chrome 74.0.3729.169,,2019-06-03 15:23:18,2019-06-03 15:23:20,2.006s,PASSED
"click(findTestObject(""RelationshipManagerForPre-Qual/Tab_OwnerShipDetails/span_Address and Ownership Det""))",Chrome 74.0.3729.169,,2019-06-03 15:23:20,2019-06-03 15:23:20,0.194s,PASSED
"sendKeys(findTestObject(""RelationshipManagerForPre-Qual/Tab_OwnerShipDetails/input__ku-text-rAddressLine1""), ""Flat No 12, Saptshrungi Mata Appartment, Near Rose Bekary, Lamkhede Mala, Tarwala Nagar, Dindori Road, Panchvati, Nashik"")",Chrome 74.0.3729.169,,2019-06-03 15:23:20,2019-06-03 15:23:21,1.380s,PASSED
"sendKeys(findTestObject(""RelationshipManagerForPre-Qual/Tab_OwnerShipDetails/input_Please enter a Pincode f""), findTestData(""Data Files/Pre-qualAndPD1/Pre_qual"").getValue(9, 1))",Chrome 74.0.3729.169,,2019-06-03 15:23:21,2019-06-03 15:23:22,0.192s,PASSED
"click(findTestObject(""RelationshipManagerForPre-Qual/Tab_OwnerShipDetails/input_State_ku-checkbox-curren""))",Chrome 74.0.3729.169,,2019-06-03 15:23:22,2019-06-03 15:23:22,0.097s,PASSED
delay(1),Chrome 74.0.3729.169,,2019-06-03 15:23:22,2019-06-03 15:23:23,1.005s,PASSED
"click(findTestObject(""RelationshipManagerForPre-Qual/Tab_OwnerShipDetails/span_Address and Ownership Det""))",Chrome 74.0.3729.169,,2019-06-03 15:23:23,2019-06-03 15:23:23,0.181s,PASSED
delay(3),Chrome 74.0.3729.169,,2019-06-03 15:23:23,2019-06-03 15:23:26,3.006s,PASSED
"click(findTestObject(""Object Repository/RelationshipManagerForPre-Qual/Tab_BankDetails/span_Banking Details""))",Chrome 74.0.3729.169,,2019-06-03 15:23:26,2019-06-03 15:23:26,0.129s,PASSED
"sendKeys(findTestObject(""RelationshipManagerForPre-Qual/Tab_BankDetails/input_Bank Account Number_ku-t""), findTestData(""Data Files/Pre-qualAndPD1/Pre_qual"").getValue(10, 1))",Chrome 74.0.3729.169,,2019-06-03 15:23:26,2019-06-03 15:23:26,0.319s,PASSED
"sendKeys(findTestObject(""RelationshipManagerForPre-Qual/Tab_BankDetails/input_IFSC Code Branch Address""), findTestData(""Data Files/Pre-qualAndPD1/Pre_qual"").getValue(11, 1))",Chrome 74.0.3729.169,,2019-06-03 15:23:26,2019-06-03 15:23:26,0.233s,PASSED
delay(1),Chrome 74.0.3729.169,,2019-06-03 15:23:27,2019-06-03 15:23:28,1.003s,PASSED
"click(findTestObject(""RelationshipManagerForPre-Qual/Tab_BankDetails/input_IFSC Code Branch Address""))",Chrome 74.0.3729.169,,2019-06-03 15:23:28,2019-06-03 15:23:28,0.148s,PASSED
delay(2),Chrome 74.0.3729.169,,2019-06-03 15:23:28,2019-06-03 15:23:30,2.006s,PASSED
"sendKeys(findTestObject(""RelationshipManagerForPre-Qual/Tab_BankDetails/input_Vintage of the Bank Acco""), findTestData(""Data Files/Pre-qualAndPD1/Pre_qual"").getValue(12, 1))",Chrome 74.0.3729.169,,2019-06-03 15:23:30,2019-06-03 15:23:30,0.177s,PASSED
delay(1),Chrome 74.0.3729.169,,2019-06-03 15:23:30,2019-06-03 15:23:31,1.002s,PASSED
"click(findTestObject(""Object Repository/RelationshipManagerForPre-Qual/Tab_BankDetails/span_Banking Details""))",Chrome 74.0.3729.169,,2019-06-03 15:23:31,2019-06-03 15:23:31,0.069s,PASSED
delay(1),Chrome 74.0.3729.169,,2019-06-03 15:23:31,2019-06-03 15:23:32,1.004s,PASSED
"click(findTestObject(""RelationshipManagerForPre-Qual/Tab_BankDetails/TakenLoanDetails/span_Other Loan Details""))",Chrome 74.0.3729.169,,2019-06-03 15:23:32,2019-06-03 15:23:32,0.119s,PASSED
"println(findTestData(""Data Files/Pre-qualAndPD1/Pre_qual"").getValue(13, 1) == ""yes"")",Chrome 74.0.3729.169,,2019-06-03 15:23:32,2019-06-03 15:23:32,0.037s,PASSED
"if (findTestData(""Data Files/Pre-qualAndPD1/Pre_qual"").getValue(13, 1) == ""yes"")",Chrome 74.0.3729.169,,2019-06-03 15:23:32,2019-06-03 15:23:41,8.720s,PASSED
"sendKeys(findTestObject(""RelationshipManagerForPre-Qual/ComntAndNext/textarea_Personal Feedback or""), ""Whatever you want"")",Chrome 74.0.3729.169,,2019-06-03 15:23:41,2019-06-03 15:23:41,0.283s,PASSED
"click(findTestObject(""RelationshipManagerForPre-Qual/ComntAndNext/span_Next""))",Chrome 74.0.3729.169,,2019-06-03 15:23:41,2019-06-03 15:23:41,0.117s,PASSED
delay(3),Chrome 74.0.3729.169,,2019-06-03 15:23:41,2019-06-03 15:23:44,3.004s,PASSED
"click(findTestObject(""RelationshipManagerForPre-Qual/Page_ProceedToPD1/Page_Svakarma Finance/span_Next""))",Chrome 74.0.3729.169,,2019-06-03 15:23:44,2019-06-03 15:23:44,0.232s,PASSED
delay(3),Chrome 74.0.3729.169,,2019-06-03 15:23:44,2019-06-03 15:23:47,3.007s,PASSED
"click(findTestObject(""RelationshipManagerForPre-Qual/Page_SelectPD1Location/div_PD1Location""))",Chrome 74.0.3729.169,,2019-06-03 15:23:47,2019-06-03 15:23:49,1.299s,PASSED
delay(2),Chrome 74.0.3729.169,,2019-06-03 15:23:49,2019-06-03 15:23:51,2.010s,PASSED
"xpath7 = ""//div[contains(text(),"""" + findTestData(""Data Files/Pre-qualAndPD1/Pre_qual"").getValue(14, 1) + """")]""",Chrome 74.0.3729.169,,2019-06-03 15:23:51,2019-06-03 15:23:51,0.087s,PASSED
"to.addProperty(""xpath"", EQUALS, xpath7)",Chrome 74.0.3729.169,,2019-06-03 15:23:51,2019-06-03 15:23:51,0.001s,PASSED
click(to),Chrome 74.0.3729.169,,2019-06-03 15:23:51,2019-06-03 15:23:51,0.087s,PASSED
delay(2),Chrome 74.0.3729.169,,2019-06-03 15:23:51,2019-06-03 15:23:53,2.004s,PASSED
"click(findTestObject(""RelationshipManagerForPre-Qual/Page_SelectPD1Location/span_Next""))",Chrome 74.0.3729.169,,2019-06-03 15:23:53,2019-06-03 15:23:53,0.151s,PASSED
delay(3),Chrome 74.0.3729.169,,2019-06-03 15:23:53,2019-06-03 15:23:56,3.004s,PASSED
closeBrowser(),Chrome 74.0.3729.169,,2019-06-03 15:23:56,2019-06-03 15:23:57,0.739s,PASSED
,,,,,,
Test Cases/HappyPath/PD1_HappyPath,Chrome 74.0.3729.169,,2019-06-03 15:23:57,2019-06-03 15:24:41,44.222s,FAILED
openBrowser(null),Chrome 74.0.3729.169,,2019-06-03 15:23:57,2019-06-03 15:24:00,2.265s,PASSED
maximizeWindow(null),Chrome 74.0.3729.169,,2019-06-03 15:24:00,2019-06-03 15:24:01,1.188s,PASSED
"navigateToUrl(findTestData(""Data Files/Credentials/Cred_Data"").getValue(2, 3))",Chrome 74.0.3729.169,Login,2019-06-03 15:24:01,2019-06-03 15:24:02,1.367s,PASSED
"setText(findTestObject(""Login/input_Enter Email Id_ku-text-e""), findTestData(""Data Files/Credentials/Cred_Data"").getValue(3, 3))",Chrome 74.0.3729.169,,2019-06-03 15:24:02,2019-06-03 15:24:02,0.182s,PASSED
"sendKeys(findTestObject(""Login/input_Enter Password_ku-text-p""), findTestData(""Data Files/Credentials/Cred_Data"").getValue(4, 3))",Chrome 74.0.3729.169,,2019-06-03 15:24:02,2019-06-03 15:24:03,0.154s,PASSED
"click(findTestObject(""Login/input_Enter Password_ku-checkb""))",Chrome 74.0.3729.169,,2019-06-03 15:24:03,2019-06-03 15:24:03,0.096s,PASSED
"click(findTestObject(""Login/span_Submit""))",Chrome 74.0.3729.169,,2019-06-03 15:24:03,2019-06-03 15:24:03,0.145s,PASSED
delay(1),Chrome 74.0.3729.169,,2019-06-03 15:24:03,2019-06-03 15:24:04,1.002s,PASSED
"xpath = ""//span[contains(text(), """" + findTestData(""Data Files/LeadGenerationAndAssign/Assigning"").getValue(1, 1) + """" )]""",Chrome 74.0.3729.169,,2019-06-03 15:24:04,2019-06-03 15:24:04,0.018s,PASSED
println(xpath),Chrome 74.0.3729.169,,2019-06-03 15:24:04,2019-06-03 15:24:04,0.001s,PASSED
to = new com.kms.katalon.core.testobject.TestObject(path),Chrome 74.0.3729.169,,2019-06-03 15:24:04,2019-06-03 15:24:04,0.001s,PASSED
"to.addProperty(""xpath"", EQUALS, xpath)",Chrome 74.0.3729.169,,2019-06-03 15:24:04,2019-06-03 15:24:04,0.001s,PASSED
click(to),Chrome 74.0.3729.169,,2019-06-03 15:24:04,2019-06-03 15:24:04,0.615s,PASSED
Thread.sleep(2),Chrome 74.0.3729.169,,2019-06-03 15:24:04,2019-06-03 15:24:04,0.007s,PASSED
delay(1),Chrome 74.0.3729.169,,2019-06-03 15:24:04,2019-06-03 15:24:05,1.003s,PASSED
"click(findTestObject(""Object Repository/PD1/Business_Details/AddressAndContactDetails/span_Next""))",Chrome 74.0.3729.169,,2019-06-03 15:24:05,2019-06-03 15:24:06,0.182s,PASSED
delay(3),Chrome 74.0.3729.169,,2019-06-03 15:24:06,2019-06-03 15:24:09,3.003s,PASSED
"click(findTestObject(""Object Repository/PD1/Business_Details/Business_Details/Datepicker-enterprises""))",Chrome 74.0.3729.169,,2019-06-03 15:24:09,2019-06-03 15:24:41,32.452s,FAILED
