Suite/Test/Step Name,Browser,Description,Start time,End time,Duration,Status
HappyFlow,Chrome 73.0.3683.103,,2019-05-21 10:50:16,2019-05-21 10:52:46,2m - 29.629s,FAILED
,,,,,,
Test Cases/HappyPath/AssignForPDTestCase,Chrome 73.0.3683.103,,2019-05-21 10:50:16,2019-05-21 10:50:43,26.031s,PASSED
"openBrowser(findTestData(""Data Files/Credentials/Cred_Data"").getValue(2, 2))",Chrome 73.0.3683.103,,2019-05-21 10:50:17,2019-05-21 10:50:23,5.749s,PASSED
maximizeWindow(),Chrome 73.0.3683.103,,2019-05-21 10:50:23,2019-05-21 10:50:24,1.200s,PASSED
"sendKeys(findTestObject(""AssignForPD/SalesManagerLogin/Page_Lead Management/input__jss9""), findTestData(""Data Files/Credentials/Cred_Data"").getValue(3, 2))",Chrome 73.0.3683.103,,2019-05-21 10:50:24,2019-05-21 10:50:24,0.222s,PASSED
"sendKeys(findTestObject(""AssignForPD/SalesManagerLogin/Page_Lead Management/input__password""), findTestData(""Data Files/Credentials/Cred_Data"").getValue(4, 2))",Chrome 73.0.3683.103,,2019-05-21 10:50:24,2019-05-21 10:50:24,0.200s,PASSED
"click(findTestObject(""AssignForPD/SalesManagerLogin/Page_Lead Management/input__jss9 jss12""))",Chrome 73.0.3683.103,,2019-05-21 10:50:24,2019-05-21 10:50:24,0.097s,PASSED
delay(2),Chrome 73.0.3683.103,,2019-05-21 10:50:24,2019-05-21 10:50:26,2.029s,PASSED
"for ([rowNum = 1, rowNum <= findTestData(""Data Files/LeadGenerationAndAssign/Assigning"").getRowNumbers(), (rowNum++)])",Chrome 73.0.3683.103,,2019-05-21 10:50:26,2019-05-21 10:50:42,15.261s,PASSED
closeBrowser(),Chrome 73.0.3683.103,,2019-05-21 10:50:42,2019-05-21 10:50:43,0.862s,PASSED
,,,,,,
Test Cases/HappyPath/RelationshipManagerForPre-QualTestCase,Chrome 73.0.3683.103,,2019-05-21 10:50:43,2019-05-21 10:52:13,1m - 30.899s,PASSED
"openBrowser(findTestData(""Data Files/Credentials/Cred_Data"").getValue(2, 3))",Chrome 73.0.3683.103,,2019-05-21 10:50:43,2019-05-21 10:50:47,3.814s,PASSED
maximizeWindow(),Chrome 73.0.3683.103,,2019-05-21 10:50:47,2019-05-21 10:50:48,1.180s,PASSED
"sendKeys(findTestObject(""RelationshipManagerForPre-Qual/Page_RelatinshipManagerLogin/input_Enter Email Id_ku-text-e""), findTestData(""Data Files/Credentials/Cred_Data"").getValue(3, 3))",Chrome 73.0.3683.103,,2019-05-21 10:50:48,2019-05-21 10:50:48,0.183s,PASSED
"sendKeys(findTestObject(""RelationshipManagerForPre-Qual/Page_RelatinshipManagerLogin/input_Enter Password_ku-text-p""), findTestData(""Data Files/Credentials/Cred_Data"").getValue(4, 3))",Chrome 73.0.3683.103,,2019-05-21 10:50:48,2019-05-21 10:50:48,0.177s,PASSED
"click(findTestObject(""RelationshipManagerForPre-Qual/Page_RelatinshipManagerLogin/input_Enter Password_ku-checkb""))",Chrome 73.0.3683.103,,2019-05-21 10:50:48,2019-05-21 10:50:48,0.088s,PASSED
"click(findTestObject(""RelationshipManagerForPre-Qual/Page_RelatinshipManagerLogin/span_Submit""))",Chrome 73.0.3683.103,,2019-05-21 10:50:48,2019-05-21 10:50:48,0.100s,PASSED
delay(2),Chrome 73.0.3683.103,,2019-05-21 10:50:48,2019-05-21 10:50:50,2.005s,PASSED
"xpath = ""//span[contains(text(), """" + findTestData(""Data Files/LeadGenerationAndAssign/Assigning"").getValue(1, 1) + """" )]""",Chrome 73.0.3683.103,,2019-05-21 10:50:50,2019-05-21 10:50:51,0.071s,PASSED
println(xpath),Chrome 73.0.3683.103,,2019-05-21 10:50:51,2019-05-21 10:50:51,0.002s,PASSED
to = new com.kms.katalon.core.testobject.TestObject(path),Chrome 73.0.3683.103,,2019-05-21 10:50:51,2019-05-21 10:50:51,0.001s,PASSED
"to.addProperty(""xpath"", EQUALS, xpath)",Chrome 73.0.3683.103,,2019-05-21 10:50:51,2019-05-21 10:50:51,0.001s,PASSED
click(to),Chrome 73.0.3683.103,,2019-05-21 10:50:51,2019-05-21 10:50:51,0.113s,PASSED
delay(1),Chrome 73.0.3683.103,,2019-05-21 10:50:51,2019-05-21 10:50:52,1.003s,PASSED
"click(findTestObject(""RelationshipManagerForPre-Qual/Tab_LoanApplicationDetails/span_Loan Application Details""))",Chrome 73.0.3683.103,,2019-05-21 10:50:52,2019-05-21 10:50:52,0.118s,PASSED
"click(findTestObject(""RelationshipManagerForPre-Qual/Tab_LoanApplicationDetails/Tab_LoanApplicationDetails/divRepayfrq""))",Chrome 73.0.3683.103,,2019-05-21 10:50:52,2019-05-21 10:50:52,0.083s,PASSED
delay(2),Chrome 73.0.3683.103,,2019-05-21 10:50:52,2019-05-21 10:50:54,2.002s,PASSED
"xpath1 = ""//div[contains(text(),"""" + findTestData(""Data Files/Pre-qualAndPD1/Pre_qual"").getValue(1, 1) + """")]""",Chrome 73.0.3683.103,,2019-05-21 10:50:54,2019-05-21 10:50:54,0.101s,PASSED
println(xpath1),Chrome 73.0.3683.103,,2019-05-21 10:50:54,2019-05-21 10:50:54,0.002s,PASSED
"to.addProperty(""xpath"", EQUALS, xpath1)",Chrome 73.0.3683.103,,2019-05-21 10:50:54,2019-05-21 10:50:54,0.002s,PASSED
click(to),Chrome 73.0.3683.103,,2019-05-21 10:50:54,2019-05-21 10:50:54,0.147s,PASSED
delay(2),Chrome 73.0.3683.103,,2019-05-21 10:50:54,2019-05-21 10:50:56,2.002s,PASSED
"click(findTestObject(""RelationshipManagerForPre-Qual/Tab_LoanApplicationDetails/Tab_LoanApplicationDetails/divSecurityOffered""))",Chrome 73.0.3683.103,,2019-05-21 10:50:56,2019-05-21 10:50:56,0.095s,PASSED
delay(2),Chrome 73.0.3683.103,,2019-05-21 10:50:56,2019-05-21 10:50:58,2.005s,PASSED
"xpath2 = ""//div[contains(text(),"""" + findTestData(""Data Files/Pre-qualAndPD1/Pre_qual"").getValue(2, 1) + """")]""",Chrome 73.0.3683.103,,2019-05-21 10:50:58,2019-05-21 10:50:58,0.115s,PASSED
"to.addProperty(""xpath"", EQUALS, xpath2)",Chrome 73.0.3683.103,,2019-05-21 10:50:58,2019-05-21 10:50:58,0.001s,PASSED
click(to),Chrome 73.0.3683.103,,2019-05-21 10:50:58,2019-05-21 10:50:58,0.100s,PASSED
delay(2),Chrome 73.0.3683.103,,2019-05-21 10:50:58,2019-05-21 10:51:00,2.005s,PASSED
"click(findTestObject(""RelationshipManagerForPre-Qual/Tab_LoanApplicationDetails/Tab_LoanApplicationDetails/divIDProof""))",Chrome 73.0.3683.103,,2019-05-21 10:51:00,2019-05-21 10:51:01,0.224s,PASSED
delay(2),Chrome 73.0.3683.103,,2019-05-21 10:51:01,2019-05-21 10:51:03,2.007s,PASSED
"xpath3 = ""//div[contains(text(),"""" + findTestData(""Data Files/Pre-qualAndPD1/Pre_qual"").getValue(3, 1) + """")]""",Chrome 73.0.3683.103,,2019-05-21 10:51:03,2019-05-21 10:51:03,0.112s,PASSED
"to.addProperty(""xpath"", EQUALS, xpath3)",Chrome 73.0.3683.103,,2019-05-21 10:51:03,2019-05-21 10:51:03,0.006s,PASSED
click(to),Chrome 73.0.3683.103,,2019-05-21 10:51:03,2019-05-21 10:51:03,0.121s,PASSED
delay(1),Chrome 73.0.3683.103,,2019-05-21 10:51:03,2019-05-21 10:51:04,1.005s,PASSED
"click(findTestObject(""RelationshipManagerForPre-Qual/Tab_LoanApplicationDetails/span_Loan Application Details""))",Chrome 73.0.3683.103,,2019-05-21 10:51:04,2019-05-21 10:51:04,0.120s,PASSED
delay(1),Chrome 73.0.3683.103,,2019-05-21 10:51:04,2019-05-21 10:51:05,1.006s,PASSED
"click(findTestObject(""RelationshipManagerForPre-Qual/Tab_BusinessDetails/span_Business Details""))",Chrome 73.0.3683.103,,2019-05-21 10:51:05,2019-05-21 10:51:05,0.145s,PASSED
delay(2),Chrome 73.0.3683.103,,2019-05-21 10:51:05,2019-05-21 10:51:07,2.005s,PASSED
"sendKeys(findTestObject(""RelationshipManagerForPre-Qual/Tab_BusinessDetails/input__ku-text-businessVintage""), findTestData(""Data Files/Pre-qualAndPD1/Pre_qual"").getValue(4, 1))",Chrome 73.0.3683.103,,2019-05-21 10:51:07,2019-05-21 10:51:07,0.291s,PASSED
delay(1),Chrome 73.0.3683.103,,2019-05-21 10:51:07,2019-05-21 10:51:08,1.003s,PASSED
"click(findTestObject(""RelationshipManagerForPre-Qual/Tab_BusinessDetails/span_Business Details""))",Chrome 73.0.3683.103,,2019-05-21 10:51:08,2019-05-21 10:51:09,0.105s,PASSED
delay(1),Chrome 73.0.3683.103,,2019-05-21 10:51:09,2019-05-21 10:51:10,1.004s,PASSED
"click(findTestObject(""RelationshipManagerForPre-Qual/Tab_PersonalDetails/span_Personal Details""))",Chrome 73.0.3683.103,,2019-05-21 10:51:10,2019-05-21 10:51:10,0.161s,PASSED
delay(1),Chrome 73.0.3683.103,,2019-05-21 10:51:10,2019-05-21 10:51:11,1.005s,PASSED
"click(findTestObject(""RelationshipManagerForPre-Qual/Tab_PersonalDetails/input__ku-datepicker-dob""))",Chrome 73.0.3683.103,,2019-05-21 10:51:11,2019-05-21 10:51:11,0.188s,PASSED
delay(2),Chrome 73.0.3683.103,,2019-05-21 10:51:11,2019-05-21 10:51:13,2.005s,PASSED
"click(findTestObject(""RelationshipManagerForPre-Qual/Tab_PersonalDetails/Tab_Calender/div_2019""))",Chrome 73.0.3683.103,,2019-05-21 10:51:13,2019-05-21 10:51:13,0.306s,PASSED
delay(2),Chrome 73.0.3683.103,,2019-05-21 10:51:13,2019-05-21 10:51:15,2.006s,PASSED
"xpath4 = ""//span[contains(text(),"""" + findTestData(""Data Files/Pre-qualAndPD1/Pre_qual"").getValue(5, 1) + """")]""",Chrome 73.0.3683.103,,2019-05-21 10:51:15,2019-05-21 10:51:15,0.085s,PASSED
println(xpath4),Chrome 73.0.3683.103,,2019-05-21 10:51:15,2019-05-21 10:51:15,0.001s,PASSED
"to.addProperty(""xpath"", EQUALS, xpath4)",Chrome 73.0.3683.103,,2019-05-21 10:51:15,2019-05-21 10:51:15,0.000s,PASSED
click(to),Chrome 73.0.3683.103,,2019-05-21 10:51:15,2019-05-21 10:51:15,0.122s,PASSED
delay(2),Chrome 73.0.3683.103,,2019-05-21 10:51:15,2019-05-21 10:51:17,2.004s,PASSED
"click(findTestObject(""RelationshipManagerForPre-Qual/Tab_PersonalDetails/Tab_Calender/span_27""))",Chrome 73.0.3683.103,,2019-05-21 10:51:17,2019-05-21 10:51:18,0.237s,PASSED
delay(2),Chrome 73.0.3683.103,,2019-05-21 10:51:18,2019-05-21 10:51:20,2.006s,PASSED
"click(findTestObject(""RelationshipManagerForPre-Qual/Tab_PersonalDetails/divGender""))",Chrome 73.0.3683.103,,2019-05-21 10:51:20,2019-05-21 10:51:20,0.177s,PASSED
delay(2),Chrome 73.0.3683.103,,2019-05-21 10:51:20,2019-05-21 10:51:22,2.006s,PASSED
"xpath5 = ""//div[contains(text(),"""" + findTestData(""Data Files/Pre-qualAndPD1/Pre_qual"").getValue(6, 1) + """")]""",Chrome 73.0.3683.103,,2019-05-21 10:51:22,2019-05-21 10:51:22,0.116s,PASSED
"to.addProperty(""xpath"", EQUALS, xpath5)",Chrome 73.0.3683.103,,2019-05-21 10:51:22,2019-05-21 10:51:22,0.002s,PASSED
click(to),Chrome 73.0.3683.103,,2019-05-21 10:51:22,2019-05-21 10:51:22,0.086s,PASSED
delay(1),Chrome 73.0.3683.103,,2019-05-21 10:51:22,2019-05-21 10:51:23,1.004s,PASSED
"click(findTestObject(""RelationshipManagerForPre-Qual/Tab_PersonalDetails/divMaritalStatus""))",Chrome 73.0.3683.103,,2019-05-21 10:51:23,2019-05-21 10:51:23,0.173s,PASSED
delay(1),Chrome 73.0.3683.103,,2019-05-21 10:51:23,2019-05-21 10:51:24,1.005s,PASSED
"xpath6 = ""//div[contains(text(),"""" + findTestData(""Data Files/Pre-qualAndPD1/Pre_qual"").getValue(7, 1) + """")]""",Chrome 73.0.3683.103,,2019-05-21 10:51:24,2019-05-21 10:51:24,0.093s,PASSED
"to.addProperty(""xpath"", EQUALS, xpath6)",Chrome 73.0.3683.103,,2019-05-21 10:51:24,2019-05-21 10:51:24,0.004s,PASSED
click(to),Chrome 73.0.3683.103,,2019-05-21 10:51:24,2019-05-21 10:51:25,0.131s,PASSED
delay(1),Chrome 73.0.3683.103,,2019-05-21 10:51:25,2019-05-21 10:51:26,1.003s,PASSED
"click(findTestObject(""RelationshipManagerForPre-Qual/Tab_PersonalDetails/divEducation""))",Chrome 73.0.3683.103,,2019-05-21 10:51:26,2019-05-21 10:51:26,0.125s,PASSED
delay(1),Chrome 73.0.3683.103,,2019-05-21 10:51:26,2019-05-21 10:51:27,1.003s,PASSED
"click(findTestObject(""RelationshipManagerForPre-Qual/Tab_PersonalDetails/div_SelectEducation""))",Chrome 73.0.3683.103,,2019-05-21 10:51:27,2019-05-21 10:51:27,0.133s,PASSED
delay(1),Chrome 73.0.3683.103,,2019-05-21 10:51:27,2019-05-21 10:51:28,1.007s,PASSED
"sendKeys(findTestObject(""RelationshipManagerForPre-Qual/Tab_PersonalDetails/input__ku-text-languagesKnown""), ""English"")",Chrome 73.0.3683.103,,2019-05-21 10:51:28,2019-05-21 10:51:28,0.440s,PASSED
delay(1),Chrome 73.0.3683.103,,2019-05-21 10:51:28,2019-05-21 10:51:29,1.002s,PASSED
"click(findTestObject(""RelationshipManagerForPre-Qual/Tab_PersonalDetails/span_Personal Details""))",Chrome 73.0.3683.103,,2019-05-21 10:51:29,2019-05-21 10:51:29,0.065s,PASSED
delay(1),Chrome 73.0.3683.103,,2019-05-21 10:51:29,2019-05-21 10:51:30,1.006s,PASSED
"click(findTestObject(""RelationshipManagerForPre-Qual/Tab_IDProof/span_ID-Proof""))",Chrome 73.0.3683.103,,2019-05-21 10:51:30,2019-05-21 10:51:31,0.224s,PASSED
"sendKeys(findTestObject(""RelationshipManagerForPre-Qual/Tab_IDProof/input__ku-text-panApplicant""), findTestData(""Data Files/Pre-qualAndPD1/Pre_qual"").getValue(8, 1))",Chrome 73.0.3683.103,,2019-05-21 10:51:31,2019-05-21 10:51:31,0.268s,PASSED
delay(2),Chrome 73.0.3683.103,,2019-05-21 10:51:31,2019-05-21 10:51:33,2.004s,PASSED
"click(findTestObject(""RelationshipManagerForPre-Qual/Tab_IDProof/input_Yes_radio-group-undefine""))",Chrome 73.0.3683.103,,2019-05-21 10:51:33,2019-05-21 10:51:33,0.221s,PASSED
delay(1),Chrome 73.0.3683.103,,2019-05-21 10:51:33,2019-05-21 10:51:34,1.006s,PASSED
"click(findTestObject(""RelationshipManagerForPre-Qual/Tab_IDProof/span_ID-Proof""))",Chrome 73.0.3683.103,,2019-05-21 10:51:34,2019-05-21 10:51:34,0.148s,PASSED
delay(2),Chrome 73.0.3683.103,,2019-05-21 10:51:34,2019-05-21 10:51:36,2.005s,PASSED
"click(findTestObject(""RelationshipManagerForPre-Qual/Tab_OwnerShipDetails/span_Address and Ownership Det""))",Chrome 73.0.3683.103,,2019-05-21 10:51:36,2019-05-21 10:51:36,0.216s,PASSED
"sendKeys(findTestObject(""RelationshipManagerForPre-Qual/Tab_OwnerShipDetails/input__ku-text-rAddressLine1""), ""Flat No 12, Saptshrungi Mata Appartment, Near Rose Bekary, Lamkhede Mala, Tarwala Nagar, Dindori Road, Panchvati, Nashik"")",Chrome 73.0.3683.103,,2019-05-21 10:51:36,2019-05-21 10:51:38,1.166s,PASSED
"sendKeys(findTestObject(""RelationshipManagerForPre-Qual/Tab_OwnerShipDetails/input_Please enter a Pincode f""), findTestData(""Data Files/Pre-qualAndPD1/Pre_qual"").getValue(9, 1))",Chrome 73.0.3683.103,,2019-05-21 10:51:38,2019-05-21 10:51:38,0.175s,PASSED
"click(findTestObject(""RelationshipManagerForPre-Qual/Tab_OwnerShipDetails/input_State_ku-checkbox-curren""))",Chrome 73.0.3683.103,,2019-05-21 10:51:38,2019-05-21 10:51:38,0.082s,PASSED
delay(1),Chrome 73.0.3683.103,,2019-05-21 10:51:38,2019-05-21 10:51:39,1.005s,PASSED
"click(findTestObject(""RelationshipManagerForPre-Qual/Tab_OwnerShipDetails/span_Address and Ownership Det""))",Chrome 73.0.3683.103,,2019-05-21 10:51:39,2019-05-21 10:51:39,0.121s,PASSED
delay(3),Chrome 73.0.3683.103,,2019-05-21 10:51:39,2019-05-21 10:51:42,3.004s,PASSED
"click(findTestObject(""Object Repository/RelationshipManagerForPre-Qual/Tab_BankDetails/span_Banking Details""))",Chrome 73.0.3683.103,,2019-05-21 10:51:42,2019-05-21 10:51:42,0.146s,PASSED
"sendKeys(findTestObject(""RelationshipManagerForPre-Qual/Tab_BankDetails/input_Bank Account Number_ku-t""), findTestData(""Data Files/Pre-qualAndPD1/Pre_qual"").getValue(10, 1))",Chrome 73.0.3683.103,,2019-05-21 10:51:42,2019-05-21 10:51:42,0.244s,PASSED
"sendKeys(findTestObject(""RelationshipManagerForPre-Qual/Tab_BankDetails/input_IFSC Code Branch Address""), findTestData(""Data Files/Pre-qualAndPD1/Pre_qual"").getValue(11, 1))",Chrome 73.0.3683.103,,2019-05-21 10:51:42,2019-05-21 10:51:43,0.210s,PASSED
delay(1),Chrome 73.0.3683.103,,2019-05-21 10:51:43,2019-05-21 10:51:44,1.003s,PASSED
"click(findTestObject(""RelationshipManagerForPre-Qual/Tab_BankDetails/input_IFSC Code Branch Address""))",Chrome 73.0.3683.103,,2019-05-21 10:51:44,2019-05-21 10:51:44,0.128s,PASSED
delay(2),Chrome 73.0.3683.103,,2019-05-21 10:51:44,2019-05-21 10:51:46,2.006s,PASSED
"sendKeys(findTestObject(""RelationshipManagerForPre-Qual/Tab_BankDetails/input_Vintage of the Bank Acco""), findTestData(""Data Files/Pre-qualAndPD1/Pre_qual"").getValue(12, 1))",Chrome 73.0.3683.103,,2019-05-21 10:51:46,2019-05-21 10:51:46,0.248s,PASSED
delay(1),Chrome 73.0.3683.103,,2019-05-21 10:51:46,2019-05-21 10:51:47,1.004s,PASSED
"click(findTestObject(""Object Repository/RelationshipManagerForPre-Qual/Tab_BankDetails/span_Banking Details""))",Chrome 73.0.3683.103,,2019-05-21 10:51:47,2019-05-21 10:51:47,0.106s,PASSED
delay(1),Chrome 73.0.3683.103,,2019-05-21 10:51:47,2019-05-21 10:51:48,1.003s,PASSED
"click(findTestObject(""RelationshipManagerForPre-Qual/Tab_BankDetails/TakenLoanDetails/span_Other Loan Details""))",Chrome 73.0.3683.103,,2019-05-21 10:51:48,2019-05-21 10:51:48,0.116s,PASSED
"println(findTestData(""Data Files/Pre-qualAndPD1/Pre_qual"").getValue(13, 1) == ""yes"")",Chrome 73.0.3683.103,,2019-05-21 10:51:48,2019-05-21 10:51:48,0.033s,PASSED
"if (findTestData(""Data Files/Pre-qualAndPD1/Pre_qual"").getValue(13, 1) == ""yes"")",Chrome 73.0.3683.103,,2019-05-21 10:51:48,2019-05-21 10:51:57,8.903s,PASSED
"sendKeys(findTestObject(""RelationshipManagerForPre-Qual/ComntAndNext/textarea_Personal Feedback or""), ""Whatever you want"")",Chrome 73.0.3683.103,,2019-05-21 10:51:57,2019-05-21 10:51:57,0.282s,PASSED
"click(findTestObject(""RelationshipManagerForPre-Qual/ComntAndNext/span_Next""))",Chrome 73.0.3683.103,,2019-05-21 10:51:57,2019-05-21 10:51:58,0.105s,PASSED
delay(3),Chrome 73.0.3683.103,,2019-05-21 10:51:58,2019-05-21 10:52:01,3.004s,PASSED
"click(findTestObject(""RelationshipManagerForPre-Qual/Page_ProceedToPD1/Page_Svakarma Finance/span_Next""))",Chrome 73.0.3683.103,,2019-05-21 10:52:01,2019-05-21 10:52:01,0.216s,PASSED
delay(3),Chrome 73.0.3683.103,,2019-05-21 10:52:01,2019-05-21 10:52:04,3.009s,PASSED
"click(findTestObject(""RelationshipManagerForPre-Qual/Page_SelectPD1Location/div_PD1Location""))",Chrome 73.0.3683.103,,2019-05-21 10:52:04,2019-05-21 10:52:05,1.307s,PASSED
delay(2),Chrome 73.0.3683.103,,2019-05-21 10:52:05,2019-05-21 10:52:07,2.005s,PASSED
"xpath7 = ""//div[contains(text(),"""" + findTestData(""Data Files/Pre-qualAndPD1/Pre_qual"").getValue(14, 1) + """")]""",Chrome 73.0.3683.103,,2019-05-21 10:52:07,2019-05-21 10:52:07,0.088s,PASSED
"to.addProperty(""xpath"", EQUALS, xpath7)",Chrome 73.0.3683.103,,2019-05-21 10:52:07,2019-05-21 10:52:07,0.002s,PASSED
click(to),Chrome 73.0.3683.103,,2019-05-21 10:52:07,2019-05-21 10:52:07,0.125s,PASSED
delay(2),Chrome 73.0.3683.103,,2019-05-21 10:52:07,2019-05-21 10:52:09,2.005s,PASSED
"click(findTestObject(""RelationshipManagerForPre-Qual/Page_SelectPD1Location/span_Next""))",Chrome 73.0.3683.103,,2019-05-21 10:52:09,2019-05-21 10:52:10,0.236s,PASSED
delay(3),Chrome 73.0.3683.103,,2019-05-21 10:52:10,2019-05-21 10:52:13,3.008s,PASSED
closeBrowser(),Chrome 73.0.3683.103,,2019-05-21 10:52:13,2019-05-21 10:52:13,0.923s,PASSED
,,,,,,
Test Cases/HappyPath/PD1_HappyPath,Chrome 73.0.3683.103,,2019-05-21 10:52:13,2019-05-21 10:52:45,31.486s,FAILED
openBrowser(null),Chrome 73.0.3683.103,,2019-05-21 10:52:14,2019-05-21 10:52:16,2.387s,PASSED
maximizeWindow(null),Chrome 73.0.3683.103,,2019-05-21 10:52:16,2019-05-21 10:52:18,1.218s,PASSED
"navigateToUrl(findTestData(""Data Files/Credentials/Cred_Data"").getValue(2, 3))",Chrome 73.0.3683.103,Login,2019-05-21 10:52:18,2019-05-21 10:52:19,1.093s,PASSED
"setText(findTestObject(""Login/input_Enter Email Id_ku-text-e""), findTestData(""Data Files/Credentials/Cred_Data"").getValue(3, 3))",Chrome 73.0.3683.103,,2019-05-21 10:52:19,2019-05-21 10:52:19,0.156s,PASSED
"sendKeys(findTestObject(""Login/input_Enter Password_ku-text-p""), findTestData(""Data Files/Credentials/Cred_Data"").getValue(4, 3))",Chrome 73.0.3683.103,,2019-05-21 10:52:19,2019-05-21 10:52:19,0.183s,PASSED
"click(findTestObject(""Login/input_Enter Password_ku-checkb""))",Chrome 73.0.3683.103,,2019-05-21 10:52:19,2019-05-21 10:52:19,0.094s,PASSED
"click(findTestObject(""Login/span_Submit""))",Chrome 73.0.3683.103,,2019-05-21 10:52:19,2019-05-21 10:52:19,0.128s,PASSED
delay(1),Chrome 73.0.3683.103,,2019-05-21 10:52:19,2019-05-21 10:52:20,1.026s,PASSED
"xpath = ""//span[contains(text(), """" + findTestData(""Data Files/LeadGenerationAndAssign/Assigning"").getValue(1, 1) + """" )]""",Chrome 73.0.3683.103,,2019-05-21 10:52:20,2019-05-21 10:52:20,0.038s,PASSED
println(xpath),Chrome 73.0.3683.103,,2019-05-21 10:52:20,2019-05-21 10:52:20,0.000s,PASSED
to = new com.kms.katalon.core.testobject.TestObject(path),Chrome 73.0.3683.103,,2019-05-21 10:52:20,2019-05-21 10:52:20,0.002s,PASSED
"to.addProperty(""xpath"", EQUALS, xpath)",Chrome 73.0.3683.103,,2019-05-21 10:52:20,2019-05-21 10:52:20,0.001s,PASSED
click(to),Chrome 73.0.3683.103,,2019-05-21 10:52:20,2019-05-21 10:52:20,0.105s,PASSED
Thread.sleep(2),Chrome 73.0.3683.103,,2019-05-21 10:52:20,2019-05-21 10:52:20,0.010s,PASSED
delay(1),Chrome 73.0.3683.103,,2019-05-21 10:52:20,2019-05-21 10:52:21,1.003s,PASSED
"click(findTestObject(""Object Repository/PD1/PD Details/div_PD Details""))",Chrome 73.0.3683.103,,2019-05-21 10:52:21,2019-05-21 10:52:22,0.070s,PASSED
delay(1),Chrome 73.0.3683.103,,2019-05-21 10:52:22,2019-05-21 10:52:23,1.002s,PASSED
"sendKeys(findTestObject(""Object Repository/PD1/PD Details/Page_Svakarma Finance/input_Person who accompanied the PD officer_ku-text-coOfficerR""), Keys.chord(CONTROL, ""a""))",Chrome 73.0.3683.103,,2019-05-21 10:52:23,2019-05-21 10:52:23,0.081s,PASSED
delay(1),Chrome 73.0.3683.103,,2019-05-21 10:52:23,2019-05-21 10:52:24,1.003s,PASSED
"sendKeys(findTestObject(""Object Repository/PD1/PD Details/Page_Svakarma Finance/input_Person who accompanied the PD officer_ku-text-coOfficerR""), Keys.chord(BACK_SPACE))",Chrome 73.0.3683.103,,2019-05-21 10:52:24,2019-05-21 10:52:24,0.054s,PASSED
"sendKeys(findTestObject(""Object Repository/PD1/PD Details/Page_Svakarma Finance/input_Person who accompanied the PD officer_ku-text-coOfficerR""), findTestData(""Data Files/Pre-qualAndPD1/Pre_qual"").getValue(15, 1))",Chrome 73.0.3683.103,,2019-05-21 10:52:24,2019-05-21 10:52:24,0.227s,PASSED
"click(findTestObject(""Object Repository/PD1/PD Details/NameOfPersonMet""))",Chrome 73.0.3683.103,,2019-05-21 10:52:24,2019-05-21 10:52:24,0.088s,PASSED
"sendKeys(findTestObject(""Object Repository/PD1/PD Details/NameOfPersonMet""), Keys.chord(CONTROL, ""a""))",Chrome 73.0.3683.103,,2019-05-21 10:52:24,2019-05-21 10:52:24,0.069s,PASSED
delay(1),Chrome 73.0.3683.103,,2019-05-21 10:52:24,2019-05-21 10:52:25,1.002s,PASSED
"sendKeys(findTestObject(""Object Repository/PD1/PD Details/NameOfPersonMet""), Keys.chord(BACK_SPACE))",Chrome 73.0.3683.103,,2019-05-21 10:52:25,2019-05-21 10:52:25,0.037s,PASSED
"sendKeys(findTestObject(""Object Repository/PD1/PD Details/NameOfPersonMet""), findTestData(""Data Files/Pre-qualAndPD1/Pre_qual"").getValue(16, 1))",Chrome 73.0.3683.103,,2019-05-21 10:52:25,2019-05-21 10:52:25,0.194s,PASSED
delay(1),Chrome 73.0.3683.103,,2019-05-21 10:52:25,2019-05-21 10:52:26,1.003s,PASSED
"click(findTestObject(""Object Repository/PD1/PD Details/DesignationOfPersonMet_Dropdown""))",Chrome 73.0.3683.103,,2019-05-21 10:52:26,2019-05-21 10:52:26,0.148s,PASSED
delay(2),Chrome 73.0.3683.103,,2019-05-21 10:52:26,2019-05-21 10:52:28,2.005s,PASSED
"xpath8 = ""//div[contains(text(),"""" + findTestData(""Data Files/Pre-qualAndPD1/Pre_qual"").getValue(17, 1) + """")]""",Chrome 73.0.3683.103,,2019-05-21 10:52:28,2019-05-21 10:52:29,0.098s,PASSED
"to.addProperty(""xpath"", EQUALS, xpath8)",Chrome 73.0.3683.103,,2019-05-21 10:52:29,2019-05-21 10:52:29,0.006s,PASSED
click(to),Chrome 73.0.3683.103,,2019-05-21 10:52:29,2019-05-21 10:52:29,0.139s,PASSED
delay(1),Chrome 73.0.3683.103,,2019-05-21 10:52:29,2019-05-21 10:52:30,1.003s,PASSED
"click(findTestObject(""Object Repository/PD1/PD Details/Who were the queries answ_Dropdown""))",Chrome 73.0.3683.103,,2019-05-21 10:52:30,2019-05-21 10:52:30,0.153s,PASSED
delay(1),Chrome 73.0.3683.103,,2019-05-21 10:52:30,2019-05-21 10:52:31,1.004s,PASSED
"xpath9 = ""//div[contains(text(),"""" + findTestData(""Data Files/Pre-qualAndPD1/Pre_qual"").getValue(18, 1) + """")]""",Chrome 73.0.3683.103,,2019-05-21 10:52:31,2019-05-21 10:52:31,0.022s,PASSED
"to.addProperty(""xpath"", EQUALS, xpath9)",Chrome 73.0.3683.103,,2019-05-21 10:52:31,2019-05-21 10:52:31,0.000s,PASSED
click(to),Chrome 73.0.3683.103,,2019-05-21 10:52:31,2019-05-21 10:52:31,0.120s,PASSED
delay(1),Chrome 73.0.3683.103,,2019-05-21 10:52:31,2019-05-21 10:52:32,1.005s,PASSED
"click(findTestObject(""Object Repository/PD1/PD Details/PD Details_Next""))",Chrome 73.0.3683.103,,2019-05-21 10:52:32,2019-05-21 10:52:32,0.211s,PASSED
delay(2),Chrome 73.0.3683.103,,2019-05-21 10:52:32,2019-05-21 10:52:34,2.005s,PASSED
"scrollToElement(findTestObject(""PD1/LoanRequirements/dropdown-schemeDescription""), 1)",Chrome 73.0.3683.103,,2019-05-21 10:52:34,2019-05-21 10:52:34,0.049s,PASSED
"println(findTestData(""Data Files/Pre-qualAndPD1/Pre_qual"").getValue(19, 1) == ""yes"")",Chrome 73.0.3683.103,,2019-05-21 10:52:34,2019-05-21 10:52:34,0.032s,PASSED
"if (findTestData(""Data Files/Pre-qualAndPD1/Pre_qual"").getValue(19, 1) == ""yes"")",Chrome 73.0.3683.103,,2019-05-21 10:52:34,2019-05-21 10:52:36,2.187s,PASSED
"click(findTestObject(""PD1/LoanRequirements/dropdown-schemeDescription""))",Chrome 73.0.3683.103,,2019-05-21 10:52:36,2019-05-21 10:52:37,0.245s,PASSED
delay(1),Chrome 73.0.3683.103,,2019-05-21 10:52:37,2019-05-21 10:52:38,1.005s,PASSED
"sendKeys(findTestObject(""PD1/LoanRequirements/dropdown-schemeDescription""), Keys.chord(CONTROL, ""a""))",Chrome 73.0.3683.103,,2019-05-21 10:52:38,2019-05-21 10:52:38,0.123s,PASSED
delay(1),Chrome 73.0.3683.103,,2019-05-21 10:52:38,2019-05-21 10:52:39,1.002s,PASSED
"sendKeys(findTestObject(""PD1/LoanRequirements/dropdown-schemeDescription""), Keys.chord(BACK_SPACE))",Chrome 73.0.3683.103,,2019-05-21 10:52:39,2019-05-21 10:52:39,0.043s,PASSED
"click(findTestObject(""PD1/LoanRequirements/ScehemeValue_WORKING CAPITAL MSME""))",Chrome 73.0.3683.103,,2019-05-21 10:52:39,2019-05-21 10:52:39,0.134s,PASSED
"scrollToElement(findTestObject(""PD1/LoanRequirements/Text-valueOfAsset""), 0)",Chrome 73.0.3683.103,,2019-05-21 10:52:39,2019-05-21 10:52:39,0.050s,PASSED
"click(findTestObject(""PD1/LoanRequirements/Text-valueOfAsset""), STOP_ON_FAILURE)",Chrome 73.0.3683.103,,2019-05-21 10:52:39,2019-05-21 10:52:39,0.099s,PASSED
"sendKeys(findTestObject(""PD1/LoanRequirements/Text-valueOfAsset""), Keys.chord(CONTROL, ""a""))",Chrome 73.0.3683.103,,2019-05-21 10:52:39,2019-05-21 10:52:39,0.052s,PASSED
delay(1),Chrome 73.0.3683.103,,2019-05-21 10:52:39,2019-05-21 10:52:40,1.004s,PASSED
"sendKeys(findTestObject(""PD1/LoanRequirements/Text-valueOfAsset""), Keys.chord(BACK_SPACE))",Chrome 73.0.3683.103,,2019-05-21 10:52:40,2019-05-21 10:52:40,0.105s,PASSED
"sendKeys(findTestObject(""PD1/LoanRequirements/Text-valueOfAsset""), ""4500000"")",Chrome 73.0.3683.103,,2019-05-21 10:52:40,2019-05-21 10:52:40,0.127s,PASSED
delay(1),Chrome 73.0.3683.103,,2019-05-21 10:52:40,2019-05-21 10:52:41,1.003s,PASSED
"sendKeys(findTestObject(""PD1/LoanRequirements/Text-commentsOnSecurity""), Keys.chord(CONTROL, ""a""))",Chrome 73.0.3683.103,,2019-05-21 10:52:41,2019-05-21 10:52:42,0.109s,PASSED
delay(1),Chrome 73.0.3683.103,,2019-05-21 10:52:42,2019-05-21 10:52:43,1.004s,PASSED
"sendKeys(findTestObject(""PD1/LoanRequirements/Text-commentsOnSecurity""), Keys.chord(BACK_SPACE))",Chrome 73.0.3683.103,,2019-05-21 10:52:43,2019-05-21 10:52:43,0.059s,PASSED
"sendKeys(findTestObject(""PD1/LoanRequirements/Text-commentsOnSecurity""), ""Good security"")",Chrome 73.0.3683.103,,2019-05-21 10:52:43,2019-05-21 10:52:43,0.250s,PASSED
"click(findTestObject(""PD1/LoanRequirements/LoanRequirement_Next""))",Chrome 73.0.3683.103,,2019-05-21 10:52:43,2019-05-21 10:52:43,0.077s,PASSED
delay(1),Chrome 73.0.3683.103,,2019-05-21 10:52:43,2019-05-21 10:52:44,1.003s,PASSED
"click(findTestObject(""Object Repository/PD1/Personal_Details/input__radio-group-undefined""))",Chrome 73.0.3683.103,,2019-05-21 10:52:44,2019-05-21 10:52:45,0.975s,FAILED
