Suite/Test/Step Name,Browser,Description,Start time,End time,Duration,Status
HappyFlow,Chrome 74.0.3729.169,,2019-05-28 18:59:28,2019-05-28 19:01:20,1m - 51.704s,PASSED
,,,,,,
Test Cases/HappyPath/AssignForPDTestCase,Chrome 74.0.3729.169,,2019-05-28 18:59:29,2019-05-28 18:59:54,25.396s,PASSED
"openBrowser(findTestData(""Data Files/Credentials/Cred_Data"").getValue(2, 2))",Chrome 74.0.3729.169,,2019-05-28 18:59:29,2019-05-28 18:59:35,5.605s,PASSED
maximizeWindow(),Chrome 74.0.3729.169,,2019-05-28 18:59:35,2019-05-28 18:59:36,1.143s,PASSED
"sendKeys(findTestObject(""AssignForPD/SalesManagerLogin/Page_Lead Management/input__jss9""), findTestData(""Data Files/Credentials/Cred_Data"").getValue(3, 2))",Chrome 74.0.3729.169,,2019-05-28 18:59:36,2019-05-28 18:59:36,0.213s,PASSED
"sendKeys(findTestObject(""AssignForPD/SalesManagerLogin/Page_Lead Management/input__password""), findTestData(""Data Files/Credentials/Cred_Data"").getValue(4, 2))",Chrome 74.0.3729.169,,2019-05-28 18:59:36,2019-05-28 18:59:36,0.171s,PASSED
"click(findTestObject(""AssignForPD/SalesManagerLogin/Page_Lead Management/input__jss9 jss12""))",Chrome 74.0.3729.169,,2019-05-28 18:59:36,2019-05-28 18:59:36,0.088s,PASSED
delay(2),Chrome 74.0.3729.169,,2019-05-28 18:59:36,2019-05-28 18:59:38,2.029s,PASSED
"for ([rowNum = 1, rowNum <= findTestData(""Data Files/LeadGenerationAndAssign/Assigning"").getRowNumbers(), (rowNum++)])",Chrome 74.0.3729.169,,2019-05-28 18:59:38,2019-05-28 18:59:53,14.996s,PASSED
closeBrowser(),Chrome 74.0.3729.169,,2019-05-28 18:59:53,2019-05-28 18:59:54,0.737s,PASSED
,,,,,,
Test Cases/HappyPath/RelationshipManagerForPre-QualTestCase,Chrome 74.0.3729.169,,2019-05-28 18:59:54,2019-05-28 19:01:20,1m - 26.001s,PASSED
"openBrowser(findTestData(""Data Files/Credentials/Cred_Data"").getValue(2, 3))",Chrome 74.0.3729.169,,2019-05-28 18:59:54,2019-05-28 18:59:58,3.543s,PASSED
maximizeWindow(),Chrome 74.0.3729.169,,2019-05-28 18:59:58,2019-05-28 18:59:59,1.141s,PASSED
"sendKeys(findTestObject(""RelationshipManagerForPre-Qual/Page_RelatinshipManagerLogin/input_Enter Email Id_ku-text-e""), findTestData(""Data Files/Credentials/Cred_Data"").getValue(3, 3))",Chrome 74.0.3729.169,,2019-05-28 18:59:59,2019-05-28 18:59:59,0.159s,PASSED
"sendKeys(findTestObject(""RelationshipManagerForPre-Qual/Page_RelatinshipManagerLogin/input_Enter Password_ku-text-p""), findTestData(""Data Files/Credentials/Cred_Data"").getValue(4, 3))",Chrome 74.0.3729.169,,2019-05-28 18:59:59,2019-05-28 18:59:59,0.171s,PASSED
"click(findTestObject(""RelationshipManagerForPre-Qual/Page_RelatinshipManagerLogin/input_Enter Password_ku-checkb""))",Chrome 74.0.3729.169,,2019-05-28 18:59:59,2019-05-28 18:59:59,0.089s,PASSED
"click(findTestObject(""RelationshipManagerForPre-Qual/Page_RelatinshipManagerLogin/span_Submit""))",Chrome 74.0.3729.169,,2019-05-28 18:59:59,2019-05-28 19:00:00,0.121s,PASSED
delay(2),Chrome 74.0.3729.169,,2019-05-28 19:00:00,2019-05-28 19:00:02,2.003s,PASSED
"xpath = ""//span[contains(text(), """" + findTestData(""Data Files/LeadGenerationAndAssign/Assigning"").getValue(1, 1) + """" )]""",Chrome 74.0.3729.169,,2019-05-28 19:00:02,2019-05-28 19:00:02,0.046s,PASSED
println(xpath),Chrome 74.0.3729.169,,2019-05-28 19:00:02,2019-05-28 19:00:02,0.003s,PASSED
to = new com.kms.katalon.core.testobject.TestObject(path),Chrome 74.0.3729.169,,2019-05-28 19:00:02,2019-05-28 19:00:02,0.001s,PASSED
"to.addProperty(""xpath"", EQUALS, xpath)",Chrome 74.0.3729.169,,2019-05-28 19:00:02,2019-05-28 19:00:02,0.001s,PASSED
click(to),Chrome 74.0.3729.169,,2019-05-28 19:00:02,2019-05-28 19:00:02,0.105s,PASSED
delay(1),Chrome 74.0.3729.169,,2019-05-28 19:00:02,2019-05-28 19:00:03,1.003s,PASSED
"click(findTestObject(""RelationshipManagerForPre-Qual/Tab_LoanApplicationDetails/span_Loan Application Details""))",Chrome 74.0.3729.169,,2019-05-28 19:00:03,2019-05-28 19:00:03,0.101s,PASSED
"click(findTestObject(""RelationshipManagerForPre-Qual/Tab_LoanApplicationDetails/Tab_LoanApplicationDetails/divRepayfrq""))",Chrome 74.0.3729.169,,2019-05-28 19:00:03,2019-05-28 19:00:03,0.079s,PASSED
delay(2),Chrome 74.0.3729.169,,2019-05-28 19:00:03,2019-05-28 19:00:05,2.003s,PASSED
"xpath1 = ""//div[contains(text(),"""" + findTestData(""Data Files/Pre-qualAndPD1/Pre_qual"").getValue(1, 1) + """")]""",Chrome 74.0.3729.169,,2019-05-28 19:00:05,2019-05-28 19:00:05,0.084s,PASSED
println(xpath1),Chrome 74.0.3729.169,,2019-05-28 19:00:05,2019-05-28 19:00:05,0.006s,PASSED
"to.addProperty(""xpath"", EQUALS, xpath1)",Chrome 74.0.3729.169,,2019-05-28 19:00:05,2019-05-28 19:00:05,0.001s,PASSED
click(to),Chrome 74.0.3729.169,,2019-05-28 19:00:05,2019-05-28 19:00:05,0.118s,PASSED
delay(2),Chrome 74.0.3729.169,,2019-05-28 19:00:05,2019-05-28 19:00:07,2.005s,PASSED
"click(findTestObject(""RelationshipManagerForPre-Qual/Tab_LoanApplicationDetails/Tab_LoanApplicationDetails/divSecurityOffered""))",Chrome 74.0.3729.169,,2019-05-28 19:00:07,2019-05-28 19:00:07,0.117s,PASSED
delay(2),Chrome 74.0.3729.169,,2019-05-28 19:00:07,2019-05-28 19:00:09,2.003s,PASSED
"xpath2 = ""//div[contains(text(),"""" + findTestData(""Data Files/Pre-qualAndPD1/Pre_qual"").getValue(2, 1) + """")]""",Chrome 74.0.3729.169,,2019-05-28 19:00:09,2019-05-28 19:00:09,0.064s,PASSED
"to.addProperty(""xpath"", EQUALS, xpath2)",Chrome 74.0.3729.169,,2019-05-28 19:00:09,2019-05-28 19:00:09,0.000s,PASSED
click(to),Chrome 74.0.3729.169,,2019-05-28 19:00:09,2019-05-28 19:00:09,0.090s,PASSED
delay(2),Chrome 74.0.3729.169,,2019-05-28 19:00:09,2019-05-28 19:00:11,2.002s,PASSED
"click(findTestObject(""RelationshipManagerForPre-Qual/Tab_LoanApplicationDetails/Tab_LoanApplicationDetails/divIDProof""))",Chrome 74.0.3729.169,,2019-05-28 19:00:11,2019-05-28 19:00:11,0.067s,PASSED
delay(2),Chrome 74.0.3729.169,,2019-05-28 19:00:11,2019-05-28 19:00:13,2.002s,PASSED
"xpath3 = ""//div[contains(text(),"""" + findTestData(""Data Files/Pre-qualAndPD1/Pre_qual"").getValue(3, 1) + """")]""",Chrome 74.0.3729.169,,2019-05-28 19:00:13,2019-05-28 19:00:13,0.046s,PASSED
"to.addProperty(""xpath"", EQUALS, xpath3)",Chrome 74.0.3729.169,,2019-05-28 19:00:13,2019-05-28 19:00:14,0.002s,PASSED
click(to),Chrome 74.0.3729.169,,2019-05-28 19:00:14,2019-05-28 19:00:14,0.119s,PASSED
delay(1),Chrome 74.0.3729.169,,2019-05-28 19:00:14,2019-05-28 19:00:15,1.004s,PASSED
"click(findTestObject(""RelationshipManagerForPre-Qual/Tab_LoanApplicationDetails/span_Loan Application Details""))",Chrome 74.0.3729.169,,2019-05-28 19:00:15,2019-05-28 19:00:15,0.064s,PASSED
delay(1),Chrome 74.0.3729.169,,2019-05-28 19:00:15,2019-05-28 19:00:16,1.003s,PASSED
"click(findTestObject(""RelationshipManagerForPre-Qual/Tab_BusinessDetails/span_Business Details""))",Chrome 74.0.3729.169,,2019-05-28 19:00:16,2019-05-28 19:00:16,0.129s,PASSED
delay(2),Chrome 74.0.3729.169,,2019-05-28 19:00:16,2019-05-28 19:00:18,2.004s,PASSED
"sendKeys(findTestObject(""RelationshipManagerForPre-Qual/Tab_BusinessDetails/input__ku-text-businessVintage""), findTestData(""Data Files/Pre-qualAndPD1/Pre_qual"").getValue(4, 1))",Chrome 74.0.3729.169,,2019-05-28 19:00:18,2019-05-28 19:00:18,0.239s,PASSED
delay(1),Chrome 74.0.3729.169,,2019-05-28 19:00:18,2019-05-28 19:00:19,1.002s,PASSED
"click(findTestObject(""RelationshipManagerForPre-Qual/Tab_BusinessDetails/span_Business Details""))",Chrome 74.0.3729.169,,2019-05-28 19:00:19,2019-05-28 19:00:19,0.062s,PASSED
delay(1),Chrome 74.0.3729.169,,2019-05-28 19:00:19,2019-05-28 19:00:20,1.003s,PASSED
"click(findTestObject(""RelationshipManagerForPre-Qual/Tab_PersonalDetails/span_Personal Details""))",Chrome 74.0.3729.169,,2019-05-28 19:00:20,2019-05-28 19:00:20,0.085s,PASSED
delay(1),Chrome 74.0.3729.169,,2019-05-28 19:00:20,2019-05-28 19:00:21,1.003s,PASSED
"click(findTestObject(""RelationshipManagerForPre-Qual/Tab_PersonalDetails/input__ku-datepicker-dob""))",Chrome 74.0.3729.169,,2019-05-28 19:00:21,2019-05-28 19:00:21,0.091s,PASSED
delay(2),Chrome 74.0.3729.169,,2019-05-28 19:00:21,2019-05-28 19:00:23,2.001s,PASSED
"click(findTestObject(""RelationshipManagerForPre-Qual/Tab_PersonalDetails/Tab_Calender/div_2019""))",Chrome 74.0.3729.169,,2019-05-28 19:00:23,2019-05-28 19:00:23,0.118s,PASSED
delay(2),Chrome 74.0.3729.169,,2019-05-28 19:00:23,2019-05-28 19:00:25,2.005s,PASSED
"xpath4 = ""//span[contains(text(),"""" + findTestData(""Data Files/Pre-qualAndPD1/Pre_qual"").getValue(5, 1) + """")]""",Chrome 74.0.3729.169,,2019-05-28 19:00:25,2019-05-28 19:00:25,0.059s,PASSED
println(xpath4),Chrome 74.0.3729.169,,2019-05-28 19:00:25,2019-05-28 19:00:25,0.000s,PASSED
"to.addProperty(""xpath"", EQUALS, xpath4)",Chrome 74.0.3729.169,,2019-05-28 19:00:26,2019-05-28 19:00:26,0.000s,PASSED
click(to),Chrome 74.0.3729.169,,2019-05-28 19:00:26,2019-05-28 19:00:26,0.100s,PASSED
delay(2),Chrome 74.0.3729.169,,2019-05-28 19:00:26,2019-05-28 19:00:28,2.002s,PASSED
"click(findTestObject(""RelationshipManagerForPre-Qual/Tab_PersonalDetails/Tab_Calender/span_27""))",Chrome 74.0.3729.169,,2019-05-28 19:00:28,2019-05-28 19:00:28,0.093s,PASSED
delay(2),Chrome 74.0.3729.169,,2019-05-28 19:00:28,2019-05-28 19:00:30,2.003s,PASSED
"click(findTestObject(""RelationshipManagerForPre-Qual/Tab_PersonalDetails/divGender""))",Chrome 74.0.3729.169,,2019-05-28 19:00:30,2019-05-28 19:00:30,0.078s,PASSED
delay(2),Chrome 74.0.3729.169,,2019-05-28 19:00:30,2019-05-28 19:00:32,2.002s,PASSED
"xpath5 = ""//div[contains(text(),"""" + findTestData(""Data Files/Pre-qualAndPD1/Pre_qual"").getValue(6, 1) + """")]""",Chrome 74.0.3729.169,,2019-05-28 19:00:32,2019-05-28 19:00:32,0.029s,PASSED
"to.addProperty(""xpath"", EQUALS, xpath5)",Chrome 74.0.3729.169,,2019-05-28 19:00:32,2019-05-28 19:00:32,0.002s,PASSED
click(to),Chrome 74.0.3729.169,,2019-05-28 19:00:32,2019-05-28 19:00:32,0.082s,PASSED
delay(1),Chrome 74.0.3729.169,,2019-05-28 19:00:32,2019-05-28 19:00:33,1.003s,PASSED
"click(findTestObject(""RelationshipManagerForPre-Qual/Tab_PersonalDetails/divMaritalStatus""))",Chrome 74.0.3729.169,,2019-05-28 19:00:33,2019-05-28 19:00:33,0.069s,PASSED
delay(1),Chrome 74.0.3729.169,,2019-05-28 19:00:33,2019-05-28 19:00:34,1.003s,PASSED
"xpath6 = ""//div[contains(text(),"""" + findTestData(""Data Files/Pre-qualAndPD1/Pre_qual"").getValue(7, 1) + """")]""",Chrome 74.0.3729.169,,2019-05-28 19:00:34,2019-05-28 19:00:34,0.062s,PASSED
"to.addProperty(""xpath"", EQUALS, xpath6)",Chrome 74.0.3729.169,,2019-05-28 19:00:34,2019-05-28 19:00:34,0.001s,PASSED
click(to),Chrome 74.0.3729.169,,2019-05-28 19:00:34,2019-05-28 19:00:34,0.080s,PASSED
delay(1),Chrome 74.0.3729.169,,2019-05-28 19:00:34,2019-05-28 19:00:35,1.003s,PASSED
"click(findTestObject(""RelationshipManagerForPre-Qual/Tab_PersonalDetails/divEducation""))",Chrome 74.0.3729.169,,2019-05-28 19:00:35,2019-05-28 19:00:35,0.097s,PASSED
delay(1),Chrome 74.0.3729.169,,2019-05-28 19:00:35,2019-05-28 19:00:36,1.002s,PASSED
"click(findTestObject(""RelationshipManagerForPre-Qual/Tab_PersonalDetails/div_SelectEducation""))",Chrome 74.0.3729.169,,2019-05-28 19:00:36,2019-05-28 19:00:36,0.075s,PASSED
delay(1),Chrome 74.0.3729.169,,2019-05-28 19:00:36,2019-05-28 19:00:37,1.003s,PASSED
"sendKeys(findTestObject(""RelationshipManagerForPre-Qual/Tab_PersonalDetails/input__ku-text-languagesKnown""), ""English"")",Chrome 74.0.3729.169,,2019-05-28 19:00:37,2019-05-28 19:00:38,0.390s,PASSED
delay(1),Chrome 74.0.3729.169,,2019-05-28 19:00:38,2019-05-28 19:00:39,1.002s,PASSED
"click(findTestObject(""RelationshipManagerForPre-Qual/Tab_PersonalDetails/span_Personal Details""))",Chrome 74.0.3729.169,,2019-05-28 19:00:39,2019-05-28 19:00:39,0.064s,PASSED
delay(1),Chrome 74.0.3729.169,,2019-05-28 19:00:39,2019-05-28 19:00:40,1.003s,PASSED
"click(findTestObject(""RelationshipManagerForPre-Qual/Tab_IDProof/span_ID-Proof""))",Chrome 74.0.3729.169,,2019-05-28 19:00:40,2019-05-28 19:00:40,0.089s,PASSED
"sendKeys(findTestObject(""RelationshipManagerForPre-Qual/Tab_IDProof/input__ku-text-panApplicant""), findTestData(""Data Files/Pre-qualAndPD1/Pre_qual"").getValue(8, 1))",Chrome 74.0.3729.169,,2019-05-28 19:00:40,2019-05-28 19:00:40,0.224s,PASSED
delay(2),Chrome 74.0.3729.169,,2019-05-28 19:00:40,2019-05-28 19:00:42,2.003s,PASSED
"click(findTestObject(""RelationshipManagerForPre-Qual/Tab_IDProof/input_Yes_radio-group-undefine""))",Chrome 74.0.3729.169,,2019-05-28 19:00:42,2019-05-28 19:00:42,0.079s,PASSED
delay(1),Chrome 74.0.3729.169,,2019-05-28 19:00:42,2019-05-28 19:00:43,1.001s,PASSED
"click(findTestObject(""RelationshipManagerForPre-Qual/Tab_IDProof/span_ID-Proof""))",Chrome 74.0.3729.169,,2019-05-28 19:00:43,2019-05-28 19:00:43,0.063s,PASSED
delay(2),Chrome 74.0.3729.169,,2019-05-28 19:00:43,2019-05-28 19:00:45,2.003s,PASSED
"click(findTestObject(""RelationshipManagerForPre-Qual/Tab_OwnerShipDetails/span_Address and Ownership Det""))",Chrome 74.0.3729.169,,2019-05-28 19:00:45,2019-05-28 19:00:45,0.115s,PASSED
"sendKeys(findTestObject(""RelationshipManagerForPre-Qual/Tab_OwnerShipDetails/input__ku-text-rAddressLine1""), ""Flat No 12, Saptshrungi Mata Appartment, Near Rose Bekary, Lamkhede Mala, Tarwala Nagar, Dindori Road, Panchvati, Nashik"")",Chrome 74.0.3729.169,,2019-05-28 19:00:45,2019-05-28 19:00:47,1.171s,PASSED
"sendKeys(findTestObject(""RelationshipManagerForPre-Qual/Tab_OwnerShipDetails/input_Please enter a Pincode f""), findTestData(""Data Files/Pre-qualAndPD1/Pre_qual"").getValue(9, 1))",Chrome 74.0.3729.169,,2019-05-28 19:00:47,2019-05-28 19:00:47,0.145s,PASSED
"click(findTestObject(""RelationshipManagerForPre-Qual/Tab_OwnerShipDetails/input_State_ku-checkbox-curren""))",Chrome 74.0.3729.169,,2019-05-28 19:00:47,2019-05-28 19:00:47,0.100s,PASSED
delay(1),Chrome 74.0.3729.169,,2019-05-28 19:00:47,2019-05-28 19:00:48,1.003s,PASSED
"click(findTestObject(""RelationshipManagerForPre-Qual/Tab_OwnerShipDetails/span_Address and Ownership Det""))",Chrome 74.0.3729.169,,2019-05-28 19:00:48,2019-05-28 19:00:48,0.061s,PASSED
delay(3),Chrome 74.0.3729.169,,2019-05-28 19:00:48,2019-05-28 19:00:51,3.003s,PASSED
"click(findTestObject(""Object Repository/RelationshipManagerForPre-Qual/Tab_BankDetails/span_Banking Details""))",Chrome 74.0.3729.169,,2019-05-28 19:00:51,2019-05-28 19:00:51,0.083s,PASSED
"sendKeys(findTestObject(""RelationshipManagerForPre-Qual/Tab_BankDetails/input_Bank Account Number_ku-t""), findTestData(""Data Files/Pre-qualAndPD1/Pre_qual"").getValue(10, 1))",Chrome 74.0.3729.169,,2019-05-28 19:00:51,2019-05-28 19:00:51,0.217s,PASSED
"sendKeys(findTestObject(""RelationshipManagerForPre-Qual/Tab_BankDetails/input_IFSC Code Branch Address""), findTestData(""Data Files/Pre-qualAndPD1/Pre_qual"").getValue(11, 1))",Chrome 74.0.3729.169,,2019-05-28 19:00:51,2019-05-28 19:00:51,0.233s,PASSED
delay(1),Chrome 74.0.3729.169,,2019-05-28 19:00:51,2019-05-28 19:00:52,1.002s,PASSED
"click(findTestObject(""RelationshipManagerForPre-Qual/Tab_BankDetails/input_IFSC Code Branch Address""))",Chrome 74.0.3729.169,,2019-05-28 19:00:52,2019-05-28 19:00:52,0.059s,PASSED
delay(2),Chrome 74.0.3729.169,,2019-05-28 19:00:52,2019-05-28 19:00:54,2.002s,PASSED
"sendKeys(findTestObject(""RelationshipManagerForPre-Qual/Tab_BankDetails/input_Vintage of the Bank Acco""), findTestData(""Data Files/Pre-qualAndPD1/Pre_qual"").getValue(12, 1))",Chrome 74.0.3729.169,,2019-05-28 19:00:54,2019-05-28 19:00:55,0.108s,PASSED
delay(1),Chrome 74.0.3729.169,,2019-05-28 19:00:55,2019-05-28 19:00:56,1.002s,PASSED
"click(findTestObject(""Object Repository/RelationshipManagerForPre-Qual/Tab_BankDetails/span_Banking Details""))",Chrome 74.0.3729.169,,2019-05-28 19:00:56,2019-05-28 19:00:56,0.059s,PASSED
delay(1),Chrome 74.0.3729.169,,2019-05-28 19:00:56,2019-05-28 19:00:57,1.003s,PASSED
"click(findTestObject(""RelationshipManagerForPre-Qual/Tab_BankDetails/TakenLoanDetails/span_Other Loan Details""))",Chrome 74.0.3729.169,,2019-05-28 19:00:57,2019-05-28 19:00:57,0.075s,PASSED
"println(findTestData(""Data Files/Pre-qualAndPD1/Pre_qual"").getValue(13, 1) == ""yes"")",Chrome 74.0.3729.169,,2019-05-28 19:00:57,2019-05-28 19:00:57,0.027s,PASSED
"if (findTestData(""Data Files/Pre-qualAndPD1/Pre_qual"").getValue(13, 1) == ""yes"")",Chrome 74.0.3729.169,,2019-05-28 19:00:57,2019-05-28 19:01:05,8.219s,PASSED
"sendKeys(findTestObject(""RelationshipManagerForPre-Qual/ComntAndNext/textarea_Personal Feedback or""), ""Whatever you want"")",Chrome 74.0.3729.169,,2019-05-28 19:01:05,2019-05-28 19:01:05,0.279s,PASSED
"click(findTestObject(""RelationshipManagerForPre-Qual/ComntAndNext/span_Next""))",Chrome 74.0.3729.169,,2019-05-28 19:01:05,2019-05-28 19:01:05,0.102s,PASSED
delay(3),Chrome 74.0.3729.169,,2019-05-28 19:01:05,2019-05-28 19:01:08,3.002s,PASSED
"click(findTestObject(""RelationshipManagerForPre-Qual/Page_ProceedToPD1/Page_Svakarma Finance/span_Next""))",Chrome 74.0.3729.169,,2019-05-28 19:01:08,2019-05-28 19:01:08,0.091s,PASSED
delay(3),Chrome 74.0.3729.169,,2019-05-28 19:01:08,2019-05-28 19:01:11,3.002s,PASSED
"click(findTestObject(""RelationshipManagerForPre-Qual/Page_SelectPD1Location/div_PD1Location""))",Chrome 74.0.3729.169,,2019-05-28 19:01:11,2019-05-28 19:01:12,0.591s,PASSED
delay(2),Chrome 74.0.3729.169,,2019-05-28 19:01:12,2019-05-28 19:01:14,2.002s,PASSED
"xpath7 = ""//div[contains(text(),"""" + findTestData(""Data Files/Pre-qualAndPD1/Pre_qual"").getValue(14, 1) + """")]""",Chrome 74.0.3729.169,,2019-05-28 19:01:14,2019-05-28 19:01:14,0.026s,PASSED
"to.addProperty(""xpath"", EQUALS, xpath7)",Chrome 74.0.3729.169,,2019-05-28 19:01:14,2019-05-28 19:01:14,0.001s,PASSED
click(to),Chrome 74.0.3729.169,,2019-05-28 19:01:14,2019-05-28 19:01:14,0.100s,PASSED
delay(2),Chrome 74.0.3729.169,,2019-05-28 19:01:14,2019-05-28 19:01:16,2.001s,PASSED
"click(findTestObject(""RelationshipManagerForPre-Qual/Page_SelectPD1Location/span_Next""))",Chrome 74.0.3729.169,,2019-05-28 19:01:16,2019-05-28 19:01:16,0.076s,PASSED
delay(3),Chrome 74.0.3729.169,,2019-05-28 19:01:16,2019-05-28 19:01:19,3.003s,PASSED
closeBrowser(),Chrome 74.0.3729.169,,2019-05-28 19:01:19,2019-05-28 19:01:20,0.829s,PASSED
